feature	metadata	value	coef	stderr	N	N.not.0	pval	qval
UCG.005	Feces_age	Feces_age	1.80166840796025	0.319807588937821	79	50	2.84461026360582e-07	7.62355550646359e-05
Lachnospiraceae.FCS020	Feces_age	Feces_age	1.63864874609165	0.304899766994267	79	45	8.13741028062643e-07	9.69477330380875e-05
NK4A214	Feces_age	Feces_age	1.32010853543061	0.248957521795936	79	40	1.08523581759053e-06	9.69477330380875e-05
UCG.002	Feces_age	Feces_age	1.75403928546994	0.345186706505974	79	57	2.60649678375847e-06	0.000174635284511818
Christensenellaceae.R.7	Feces_age	Feces_age	1.94879965953599	0.406728632077955	79	52	8.02411529757932e-06	0.000430092579950252
Enterococcus	Feces_age	Feces_age	-1.14138747556797	0.264449391397429	79	24	4.72844551809058e-05	0.00211203899808046
Ruminococcus	Feces_age	Feces_age	1.60506739953326	0.394384728531339	79	72	0.000114118841242062	0.00422345487849951
Marvinbryantia	Feces_age	Feces_age	0.730479935410488	0.182265329858085	79	31	0.00014183243994961	0.00422345487849951
Defluviitaleaceae.UCG.011	Feces_age	Feces_age	0.736955935964249	0.18273655851693	79	25	0.000129913061026914	0.00422345487849951
Ruminococcus.gnavus	Feces_age	Feces_age	-1.22614790152254	0.313988548322329	79	66	0.000202470870338309	0.00542621932506669
Coprococcus	Feces_age	Feces_age	1.56896566099104	0.432193350104466	79	58	0.000511188407747197	0.012454408479659
Streptococcus	Feces_age	Feces_age	-0.763436811926084	0.217962005903375	79	79	0.000775243340632858	0.0172668155095772
Eubacterium.xylanophilum	Feces_age	Feces_age	0.799150996686103	0.229732977430956	79	21	0.000837569409046656	0.0172668155095772
Subdoligranulum	Feces_age	Feces_age	1.26688912157867	0.387910417546814	79	68	0.00163803937881264	0.0288617919587585
Eubacterium.coprostanoligenes	Feces_age	Feces_age	1.15256347517813	0.352646382116832	79	69	0.00162595434183684	0.0288617919587585
Incertae.Sedis	Feces_age	Feces_age	0.682451757410129	0.211296355320387	79	69	0.00183078531081677	0.0288617919587585
Gemella	sIgA	sIgA	0.546427135419682	0.168996834529777	79	22	0.00181106703318148	0.0288617919587585
Eubacterium.ventriosum	Feces_age	Feces_age	1.04422869012684	0.331678158567204	79	50	0.00234685266106366	0.03494202850917
Barnesiella	Feces_age	Feces_age	0.986003079188079	0.320197870241484	79	39	0.00288647568537726	0.0407144991411108
Clostridia.UCG.014	Feces_age	Feces_age	0.868977088576792	0.306687828314441	79	36	0.00589435586908346	0.0789843686457184
Agathobacter	Feces_age	Feces_age	0.97162082624212	0.34591809360887	79	70	0.00631745132466875	0.0799620984177518
Enterorhabdus	Feces_age	Feces_age	0.739249416731988	0.26598783719789	79	34	0.00686241889406079	0.0799620984177518
UCG.010	Feces_age	Feces_age	0.45269498003572	0.162038385867416	79	15	0.00659006735441734	0.0799620984177518
Turicibacter	Feces_age	Feces_age	0.798299370776554	0.292383097960493	79	40	0.00786019602282944	0.0851106311237926
Alistipes	Feces_age	Feces_age	0.972034591128671	0.356489962850875	79	64	0.00793942454512991	0.0851106311237926
Eubacterium	Feces_age	Feces_age	0.361472686591396	0.140903908829081	79	13	0.0122757582340515	0.126534738720223
Eggerthella	Feces_age	Feces_age	-0.681983711108053	0.268260510612868	79	67	0.0130490110205652	0.129523516796721
RF39	Feces_age	Feces_age	0.808190203396399	0.320305846393348	79	24	0.013718667694831	0.131307247936239
Intestinibacter	sIgA	sIgA	-0.63526384172804	0.254887703001902	79	68	0.0148684309642284	0.133569937420683
Erysipelatoclostridium	Feces_age	Feces_age	-0.63301673513565	0.254205833205791	79	72	0.0149518586664944	0.133569937420683
Angelakisella	Feces_age	Feces_age	0.27390766244646	0.111042481663534	79	16	0.0158888002623777	0.137361240977975
Clostridium.innocuum	Feces_age	Feces_age	-0.586689169091744	0.242628120452733	79	46	0.0179985147414263	0.150737560959445
Veillonella	Feces_age	Feces_age	-0.889881077449358	0.373519546447913	79	49	0.0196998157967136	0.159986382833916
UCG.005	sIgA	sIgA	-0.74598253650987	0.319807588937821	79	50	0.0223181451755017	0.175919497265719
Lachnospiraceae.UCG.001	Feces_age	Feces_age	0.408902789402215	0.177406507782785	79	20	0.0239039166464597	0.183035704607177
Paraprevotella	sIgA	sIgA	-0.571721652806465	0.255689946101283	79	16	0.0282865443101404	0.210577607642156
Romboutsia	Feces_age	Feces_age	0.687964088256455	0.310782793574516	79	68	0.0298524462028778	0.212973512804116
CAG.56	Feces_age	Feces_age	0.556052935545962	0.252090632214514	79	26	0.0304227157664138	0.212973512804116
Parabacteroides	Feces_age	Feces_age	0.634640948407214	0.288733174196249	79	48	0.0309924141767184	0.212973512804116
Bacteroides	Feces_age	Feces_age	0.732622104756058	0.345437742545614	79	75	0.0371959505027065	0.249212868368134
