feature	metadata	value	coef	stderr	N	N.not.0	pval	qval
UCG.005	Feces_age	Feces_age	1.80166840796025	0.319807588937821	79	50	2.84461026360582e-07	7.62355550646359e-05
Lachnospiraceae.FCS020	Feces_age	Feces_age	1.63864874609165	0.304899766994267	79	45	8.13741028062643e-07	9.69477330380875e-05
NK4A214	Feces_age	Feces_age	1.32010853543061	0.248957521795936	79	40	1.08523581759053e-06	9.69477330380875e-05
UCG.002	Feces_age	Feces_age	1.75403928546994	0.345186706505974	79	57	2.60649678375847e-06	0.000174635284511818
Christensenellaceae.R.7	Feces_age	Feces_age	1.94879965953599	0.406728632077955	79	52	8.02411529757932e-06	0.000430092579950252
Enterococcus	Feces_age	Feces_age	-1.14138747556797	0.264449391397429	79	24	4.72844551809058e-05	0.00211203899808046
Ruminococcus	Feces_age	Feces_age	1.60506739953326	0.394384728531339	79	72	0.000114118841242062	0.00422345487849951
Marvinbryantia	Feces_age	Feces_age	0.730479935410488	0.182265329858085	79	31	0.00014183243994961	0.00422345487849951
Defluviitaleaceae.UCG.011	Feces_age	Feces_age	0.736955935964249	0.18273655851693	79	25	0.000129913061026914	0.00422345487849951
Ruminococcus.gnavus	Feces_age	Feces_age	-1.22614790152254	0.313988548322329	79	66	0.000202470870338309	0.00542621932506669
Coprococcus	Feces_age	Feces_age	1.56896566099104	0.432193350104466	79	58	0.000511188407747197	0.012454408479659
Streptococcus	Feces_age	Feces_age	-0.763436811926084	0.217962005903375	79	79	0.000775243340632858	0.0172668155095772
Eubacterium.xylanophilum	Feces_age	Feces_age	0.799150996686103	0.229732977430956	79	21	0.000837569409046656	0.0172668155095772
Subdoligranulum	Feces_age	Feces_age	1.26688912157867	0.387910417546814	79	68	0.00163803937881264	0.0288617919587585
Eubacterium.coprostanoligenes	Feces_age	Feces_age	1.15256347517813	0.352646382116832	79	69	0.00162595434183684	0.0288617919587585
Incertae.Sedis	Feces_age	Feces_age	0.682451757410129	0.211296355320387	79	69	0.00183078531081677	0.0288617919587585
Gemella	sIgA	sIgA	0.546427135419682	0.168996834529777	79	22	0.00181106703318148	0.0288617919587585
Eubacterium.ventriosum	Feces_age	Feces_age	1.04422869012684	0.331678158567204	79	50	0.00234685266106366	0.03494202850917
Barnesiella	Feces_age	Feces_age	0.986003079188079	0.320197870241484	79	39	0.00288647568537726	0.0407144991411108
Clostridia.UCG.014	Feces_age	Feces_age	0.868977088576792	0.306687828314441	79	36	0.00589435586908346	0.0789843686457184
Agathobacter	Feces_age	Feces_age	0.97162082624212	0.34591809360887	79	70	0.00631745132466875	0.0799620984177518
Enterorhabdus	Feces_age	Feces_age	0.739249416731988	0.26598783719789	79	34	0.00686241889406079	0.0799620984177518
UCG.010	Feces_age	Feces_age	0.45269498003572	0.162038385867416	79	15	0.00659006735441734	0.0799620984177518
Turicibacter	Feces_age	Feces_age	0.798299370776554	0.292383097960493	79	40	0.00786019602282944	0.0851106311237926
Alistipes	Feces_age	Feces_age	0.972034591128671	0.356489962850875	79	64	0.00793942454512991	0.0851106311237926
Eubacterium	Feces_age	Feces_age	0.361472686591396	0.140903908829081	79	13	0.0122757582340515	0.126534738720223
Eggerthella	Feces_age	Feces_age	-0.681983711108053	0.268260510612868	79	67	0.0130490110205652	0.129523516796721
RF39	Feces_age	Feces_age	0.808190203396399	0.320305846393348	79	24	0.013718667694831	0.131307247936239
Intestinibacter	sIgA	sIgA	-0.63526384172804	0.254887703001902	79	68	0.0148684309642284	0.133569937420683
Erysipelatoclostridium	Feces_age	Feces_age	-0.63301673513565	0.254205833205791	79	72	0.0149518586664944	0.133569937420683
Angelakisella	Feces_age	Feces_age	0.27390766244646	0.111042481663534	79	16	0.0158888002623777	0.137361240977975
Clostridium.innocuum	Feces_age	Feces_age	-0.586689169091744	0.242628120452733	79	46	0.0179985147414263	0.150737560959445
Veillonella	Feces_age	Feces_age	-0.889881077449358	0.373519546447913	79	49	0.0196998157967136	0.159986382833916
UCG.005	sIgA	sIgA	-0.74598253650987	0.319807588937821	79	50	0.0223181451755017	0.175919497265719
Lachnospiraceae.UCG.001	Feces_age	Feces_age	0.408902789402215	0.177406507782785	79	20	0.0239039166464597	0.183035704607177
Paraprevotella	sIgA	sIgA	-0.571721652806465	0.255689946101283	79	16	0.0282865443101404	0.210577607642156
Romboutsia	Feces_age	Feces_age	0.687964088256455	0.310782793574516	79	68	0.0298524462028778	0.212973512804116
CAG.56	Feces_age	Feces_age	0.556052935545962	0.252090632214514	79	26	0.0304227157664138	0.212973512804116
Parabacteroides	Feces_age	Feces_age	0.634640948407214	0.288733174196249	79	48	0.0309924141767184	0.212973512804116
Bacteroides	Feces_age	Feces_age	0.732622104756058	0.345437742545614	79	75	0.0371959505027065	0.249212868368134
Ruminococcus.torques	sIgA	sIgA	-0.632374336421406	0.306013957612162	79	70	0.0421892735211022	0.262947100085009
Escherichia.Shigella	sIgA	sIgA	0.736083813865879	0.354320265293574	79	54	0.0411379469772526	0.262947100085009
Oscillibacter	Feces_age	Feces_age	0.52084578653315	0.251001192745443	79	35	0.0413642386727704	0.262947100085009
Akkermansia	Feces_age	Feces_age	-0.913482553412923	0.450667191446764	79	63	0.0461743811565127	0.274994092221009
Christensenellaceae.R.7	sIgA	sIgA	-0.824546583886944	0.406728632077955	79	52	0.0461420516556537	0.274994092221009
Coprococcus	sIgA	sIgA	-0.862423952941788	0.432193350104466	79	58	0.0495769164483151	0.288839426264097
Fusicatenibacter	Feces_age	Feces_age	0.564012900980237	0.289035063858305	79	71	0.0546988991245193	0.29224204559946
Turicibacter	sIgA	sIgA	-0.578196867690467	0.292383097960493	79	40	0.0516076204351546	0.29224204559946
Paraprevotella	Feces_age	Feces_age	0.497213137696361	0.255689946101283	79	16	0.0555239920457587	0.29224204559946
Parasutterella	Feces_age	Feces_age	0.480519584244543	0.247197784731826	79	21	0.0556132250954197	0.29224204559946
Merdibacter	Feces_age	Feces_age	0.270863355359157	0.138199596510051	79	12	0.0536685773891888	0.29224204559946
Dorea	Feces_age	Feces_age	0.603579196131949	0.325762804391403	79	69	0.0677905447507963	0.295134920696713
Ruminococcus.torques	Feces_age	Feces_age	0.584403080110967	0.306013957612162	79	70	0.0599421052032844	0.295134920696713
Hungatella	Feces_age	Feces_age	-0.420966677400588	0.221523455128513	79	23	0.0611830691652998	0.295134920696713
UCG.002	sIgA	sIgA	-0.647596350644534	0.345186706505974	79	57	0.064484550973629	0.295134920696713
Haemophilus	sIgA	sIgA	0.607043726775128	0.324335728225115	79	37	0.065102639581397	0.295134920696713
Eubacterium.eligens	Feces_age	Feces_age	0.595205559870714	0.316905424829645	79	56	0.0641921679140005	0.295134920696713
Adlercreutzia	Feces_age	Feces_age	0.549834833239759	0.295304201522896	79	41	0.0664791828276057	0.295134920696713
Eubacterium.xylanophilum	sIgA	sIgA	-0.435406057750385	0.229732977430956	79	21	0.0618592949679151	0.295134920696713
Family.XIII.AD3011	Feces_age	Feces_age	0.502719173595767	0.26600706346513	79	42	0.0625883929611812	0.295134920696713
Family.XIII.UCG.001	sIgA	sIgA	-0.264068443046663	0.138968051192848	79	22	0.061198488941621	0.295134920696713
Family.XIII.UCG.001	Feces_age	Feces_age	0.257017704139985	0.138968051192848	79	22	0.0682774816537171	0.295134920696713
Varibaculum	sIgA	sIgA	-0.175200912223988	0.095354372312037	79	8	0.0700646610662639	0.297714368854212
Varibaculum	Feces_age	Feces_age	0.174545895541253	0.095354372312037	79	8	0.0710959686816028	0.297714368854212
Eisenbergiella	Feces_age	Feces_age	-0.412300738429185	0.226685754608525	79	21	0.072878085745867	0.298092723863476
Eubacterium.ruminantium	Feces_age	Feces_age	0.361761048538978	0.200061220463915	79	12	0.074523180965869	0.298092723863476
Lachnospiraceae.UCG.004	Feces_age	Feces_age	0.142412565723968	0.0785377278411046	79	11	0.0737333735082833	0.298092723863476
Phascolarctobacterium	Feces_age	Feces_age	0.505133488023057	0.282785248098433	79	21	0.0780423635770377	0.306189624966157
Eubacterium.siraeum	Feces_age	Feces_age	0.40482483978684	0.227243254998977	79	34	0.0788324034427792	0.306189624966157
Lachnospiraceae.FCS020	sIgA	sIgA	-0.536796718639685	0.304899766994267	79	45	0.0823345557242442	0.315223727629963
Monoglobus	Feces_age	Feces_age	0.404851927160499	0.235577222647525	79	74	0.0897671624281712	0.334133326815971
Lactococcus	sIgA	sIgA	0.425275613220112	0.247329792811828	79	20	0.0895996395579759	0.334133326815971
Lachnospiraceae.NK4A136	Feces_age	Feces_age	0.529421771481	0.316582947037638	79	66	0.0985774089556895	0.361900624659244
Eubacterium.coprostanoligenes	sIgA	sIgA	-0.576040940814235	0.352646382116832	79	69	0.106504288239727	0.379308422577859
Tyzzerella	sIgA	sIgA	-0.473627520510079	0.289588488570796	79	30	0.106075524840593	0.379308422577859
Senegalimassilia	Feces_age	Feces_age	0.324935723395669	0.199733408491651	79	23	0.107908976118938	0.379308422577859
Colidextribacter	Feces_age	Feces_age	0.409951132415969	0.252770041242469	79	33	0.108980404994385	0.379308422577859
Ruminococcus.gauvreauii	Feces_age	Feces_age	0.442760208494049	0.274624104430731	79	43	0.111054812913314	0.379947955888725
Incertae.Sedis	sIgA	sIgA	-0.33974750719875	0.211296355320387	79	69	0.111999584011975	0.379947955888725
Bifidobacterium	Feces_age	Feces_age	-0.288653034718985	0.181222111377187	79	78	0.115352940288427	0.386432349966231
UCG.003	Feces_age	Feces_age	0.325687025638294	0.208597709786453	79	28	0.122603831892895	0.405652184534517
Erysipelotrichaceae.UCG.003	Feces_age	Feces_age	0.625559090900203	0.404162415642297	79	58	0.125826844756916	0.406284269817511
Candidatus.Soleaferrea	Feces_age	Feces_age	0.304938301006954	0.196550106851478	79	35	0.124947641897326	0.406284269817511
Eubacterium.hallii	Feces_age	Feces_age	0.552119215718426	0.370284465846828	79	70	0.140082807201503	0.446930861071463
Ruminococcus	sIgA	sIgA	-0.580964646903595	0.394384728531339	79	72	0.144856174037899	0.4488371277542
Collinsella	Feces_age	Feces_age	0.632710567677347	0.430431561669657	79	67	0.145704589979908	0.4488371277542
Paludicola	sIgA	sIgA	-0.142539953309566	0.0963121641808057	79	13	0.143012490445153	0.4488371277542
Blautia	Feces_age	Feces_age	0.177417141515582	0.12933903305414	79	79	0.17418612996485	0.458853826637128
Anaerostipes	Feces_age	Feces_age	-0.289664971774781	0.205288205303997	79	77	0.16232034392663	0.458853826637128
Escherichia.Shigella	Feces_age	Feces_age	-0.48850749982469	0.354320265293574	79	54	0.172026581946233	0.458853826637128
Butyricicoccus	Feces_age	Feces_age	0.408386288827681	0.296513991131513	79	68	0.172464975319381	0.458853826637128
Lachnospiraceae.ND3007	Feces_age	Feces_age	0.461445115133301	0.335461763859794	79	39	0.173001146801105	0.458853826637128
Sellimonas	Feces_age	Feces_age	-0.418190352949719	0.305189434263252	79	44	0.174638396705176	0.458853826637128
Lachnospira	sIgA	sIgA	-0.397788086319162	0.280763395487909	79	37	0.160624978481598	0.458853826637128
Eubacterium.siraeum	sIgA	sIgA	0.325832859552548	0.227243254998977	79	34	0.155716541594064	0.458853826637128
Gordonibacter	sIgA	sIgA	-0.295633075196162	0.211745823180182	79	40	0.166728319920808	0.458853826637128
Family.XIII.AD3011	sIgA	sIgA	-0.385303114530696	0.26600706346513	79	42	0.151599094842849	0.458853826637128
Dielma	sIgA	sIgA	0.185135096623231	0.133263478204123	79	11	0.168816555405559	0.458853826637128
Holdemania	Feces_age	Feces_age	0.271659512001612	0.19015612354897	79	33	0.157212573635603	0.458853826637128
Eubacterium.brachy	Feces_age	Feces_age	0.33170361232103	0.234650707710175	79	25	0.161560725502181	0.458853826637128
Candidatus.Soleaferrea	sIgA	sIgA	-0.274814750452495	0.196550106851478	79	35	0.166122568951933	0.458853826637128
Finegoldia	sIgA	sIgA	0.125885153664816	0.0916643073717235	79	8	0.17368844061776	0.458853826637128
Holdemanella	Feces_age	Feces_age	0.460810715788319	0.340772665987261	79	11	0.180304726224421	0.464690357365172
Eubacterium.eligens	sIgA	sIgA	-0.428513410996306	0.316905424829645	79	56	0.180327601365589	0.464690357365172
UBA1819	Feces_age	Feces_age	0.364529418613223	0.274723166798813	79	52	0.188515596903025	0.481163618762006
Odoribacter	Feces_age	Feces_age	0.227894320750752	0.175099385020091	79	27	0.197014078273979	0.493455822218939
Anaerococcus	sIgA	sIgA	0.108038877671085	0.0826885470508211	79	12	0.195296840562835	0.493455822218939
Erysipelatoclostridium	sIgA	sIgA	0.327754337007887	0.254205833205791	79	72	0.201194823458348	0.499261228581827
UC5.1.2E3	Feces_age	Feces_age	0.174439679932581	0.135947356899051	79	11	0.20334164176271	0.499959265985378
Rhodococcus	Feces_age	Feces_age	-0.38806629887544	0.304566739101893	79	29	0.206489734226202	0.503035151612407
Dielma	Feces_age	Feces_age	0.169099011213296	0.133263478204123	79	11	0.208346648615586	0.503035151612407
Streptococcus	sIgA	sIgA	0.270757965602574	0.217962005903375	79	79	0.21797292034485	0.520278503361732
Sellimonas	sIgA	sIgA	-0.376350846249225	0.305189434263252	79	44	0.221312497698647	0.520278503361732
Lachnospiraceae.UCG.010	Feces_age	Feces_age	0.23269446147668	0.18809356135743	79	21	0.219851172677898	0.520278503361732
UCG.003	sIgA	sIgA	-0.254526321912693	0.208597709786453	79	28	0.226170095070767	0.527074656338832
Lachnospiraceae.UCG.001	sIgA	sIgA	-0.214813417296924	0.177406507782785	79	20	0.229703298560909	0.530693827709687
Holdemania	sIgA	sIgA	-0.228898465244055	0.19015612354897	79	33	0.232426159969352	0.532394964716122
Lachnospiraceae.NK4A136	sIgA	sIgA	-0.376319348289616	0.316582947037638	79	66	0.238262252532039	0.541137997276157
Tyzzerella	Feces_age	Feces_age	-0.340348335458839	0.289588488570796	79	30	0.243550556844368	0.548500413733536
Marvinbryantia	sIgA	sIgA	-0.211633608992096	0.182265329858085	79	31	0.249223347404725	0.551998819045177
Bilophila	Feces_age	Feces_age	0.212337277685859	0.182410434876779	79	26	0.248039725731313	0.551998819045177
Odoribacter	sIgA	sIgA	-0.201521227872419	0.175099385020091	79	27	0.253383066263906	0.556611981628909
Phascolarctobacterium	sIgA	sIgA	-0.321957439699618	0.282785248098433	79	21	0.258478455188775	0.563039854104489
Gordonibacter	Feces_age	Feces_age	0.240042513535419	0.211745823180182	79	40	0.260510977272226	0.563039854104489
Roseburia	Feces_age	Feces_age	0.34993752860396	0.320676169931276	79	67	0.278610886544186	0.587934784203478
GCA.900066575	sIgA	sIgA	-0.13448039010828	0.122982116553312	79	15	0.277630171946632	0.587934784203478
Intestinimonas	Feces_age	Feces_age	0.0867486935468435	0.0789042308777078	79	8	0.275056466073152	0.587934784203478
Pedobacter	Feces_age	Feces_age	-0.367740428413082	0.339907297975982	79	32	0.282724733886847	0.591954911575586
Colidextribacter	sIgA	sIgA	-0.266309760834773	0.252770041242469	79	33	0.29542003413211	0.609103476098542
Sutterella	Feces_age	Feces_age	-0.135637467235557	0.128752292229003	79	10	0.295460641391084	0.609103476098542
Eubacterium.brachy	sIgA	sIgA	-0.242654461599392	0.234650707710175	79	25	0.304364513860917	0.622669387135312
Pseudomonas	Feces_age	Feces_age	-0.595998419583289	0.579564357052496	79	46	0.307044246344682	0.623392863790719
Bifidobacterium	sIgA	sIgA	0.179309795853413	0.181222111377187	79	78	0.325583903259017	0.649493337471678
Stenotrophomonas	Feces_age	Feces_age	-0.51227295096792	0.521894104315397	79	39	0.329428661752629	0.649493337471678
Flavonifractor	Feces_age	Feces_age	-0.266632962804688	0.271733935491688	79	44	0.329593633940851	0.649493337471678
Defluviitaleaceae.UCG.011	sIgA	sIgA	-0.180961017276902	0.18273655851693	79	25	0.325177934978563	0.649493337471678
Fusicatenibacter	sIgA	sIgA	0.278317949499857	0.289035063858305	79	71	0.338640991974425	0.652401102110578
Hungatella	sIgA	sIgA	0.211851158479884	0.221523455128513	79	23	0.341934045719259	0.652401102110578
Lactococcus	Feces_age	Feces_age	-0.238178533994571	0.247329792811828	79	20	0.338601746710529	0.652401102110578
Terrisporobacter	Feces_age	Feces_age	0.253565354309026	0.265865310016972	79	44	0.343240878349222	0.652401102110578
Lactobacillus	sIgA	sIgA	0.249529575763194	0.258936179440849	79	18	0.338266648892926	0.652401102110578
Eubacterium	sIgA	sIgA	-0.132755660858922	0.140903908829081	79	13	0.349090122834977	0.658846147322351
Gemella	Feces_age	Feces_age	-0.157833755665007	0.168996834529777	79	22	0.353290109772297	0.662110135797032
Lachnospiraceae.UCG.010	sIgA	sIgA	-0.171184413328433	0.18809356135743	79	21	0.365645881378133	0.680507612564859
Slackia	Feces_age	Feces_age	0.212924297925771	0.235310780533406	79	14	0.368396909443987	0.680899115386127
Faecalibacterium	Feces_age	Feces_age	0.216585700361017	0.246051313676354	79	77	0.381501067299335	0.686189839169274
Muribaculaceae	sIgA	sIgA	-0.279306336928113	0.315243630100524	79	13	0.378411606001386	0.686189839169274
UCG.010	sIgA	sIgA	-0.144601188134009	0.162038385867416	79	15	0.37500161574994	0.686189839169274
Corynebacterium	sIgA	sIgA	-0.139625720769165	0.158518595124346	79	33	0.381194410133922	0.686189839169274
Brevundimonas	Feces_age	Feces_age	-0.476248070568726	0.555374853246285	79	39	0.393850697125732	0.700811084917233
Coprobacillus	Feces_age	Feces_age	-0.171458358385679	0.204565837451452	79	18	0.404570659455798	0.700811084917233
Microbacterium	Feces_age	Feces_age	-0.199049689148234	0.237865660364387	79	26	0.405319843888698	0.700811084917233
Rothia	Feces_age	Feces_age	-0.13631461912642	0.161341791791766	79	15	0.400829182483472	0.700811084917233
Catenibacillus	Feces_age	Feces_age	0.0985718893656795	0.116244226338382	79	12	0.399116117943689	0.700811084917233
Peptoniphilus	sIgA	sIgA	0.091040214131671	0.10753452655014	79	15	0.39986840733671	0.700811084917233
Nubsella	Feces_age	Feces_age	-0.243801455541452	0.300340056511548	79	33	0.419469487604864	0.707030331308828
DTU089	Feces_age	Feces_age	0.201515805072604	0.246970334001308	79	27	0.417077937051854	0.707030331308828
Oscillibacter	sIgA	sIgA	-0.206261703887346	0.251001192745443	79	35	0.413786400821715	0.707030331308828
Christensenella	Feces_age	Feces_age	0.125890268940107	0.154127096271594	79	18	0.416598511315856	0.707030331308828
Bacteroides	sIgA	sIgA	0.269103830670001	0.345437742545614	79	75	0.438385346918313	0.712044078630956
Clostridium.sensu.stricto.1	Feces_age	Feces_age	0.284779487274707	0.355755557139868	79	70	0.425921065648524	0.712044078630956
Microbacterium	sIgA	sIgA	-0.187539795633188	0.237865660364387	79	26	0.432899208375629	0.712044078630956
Actinomyces	sIgA	sIgA	-0.172195555167826	0.216865184508841	79	64	0.42965540205245	0.712044078630956
Acinetobacter	Feces_age	Feces_age	0.114803603426268	0.145794556747199	79	23	0.433476707281799	0.712044078630956
Solobacterium	Feces_age	Feces_age	0.154624593162123	0.197968077138005	79	15	0.437194483414873	0.712044078630956
Dialister	Feces_age	Feces_age	0.376302350404511	0.497702712963432	79	42	0.451939318182404	0.720816283202084
Roseburia	sIgA	sIgA	-0.241139667457905	0.320676169931276	79	67	0.45439016187157	0.720816283202084
Sphingobacterium	Feces_age	Feces_age	-0.266730255187385	0.359112633522653	79	34	0.459923822490882	0.720816283202084
Terrisporobacter	sIgA	sIgA	-0.202920345073055	0.265865310016972	79	44	0.447680124560463	0.720816283202084
Lactobacillus	Feces_age	Feces_age	-0.193979454386734	0.258936179440849	79	18	0.456085289377703	0.720816283202084
Moryella	Feces_age	Feces_age	0.111549786142031	0.150018165861321	79	18	0.459426136918161	0.720816283202084
Agromyces	Feces_age	Feces_age	-0.077869345304101	0.10608521617563	79	12	0.465191222007187	0.724832834290268
Muribaculaceae	Feces_age	Feces_age	0.228612079306536	0.315243630100524	79	13	0.470561439169012	0.728962229464135
Blautia	sIgA	sIgA	-0.0887396112538332	0.12933903305414	79	79	0.494737384469474	0.762009304815051
Flavonifractor	sIgA	sIgA	0.184279814211859	0.271733935491688	79	44	0.499728188854507	0.765298026360044
Variovorax	Feces_age	Feces_age	-0.328294110175437	0.493673540574118	79	35	0.508061925327781	0.77363974993094
Collinsella	sIgA	sIgA	-0.280968831354848	0.430431561669657	79	67	0.515880248022867	0.778187330047616
Chryseobacterium	Feces_age	Feces_age	-0.177538959490558	0.272616686041071	79	29	0.516855763986849	0.778187330047616
Ruminococcus.gnavus	sIgA	sIgA	0.196226751161477	0.313988548322329	79	66	0.533876591607431	0.799323612015595
Clostridia.UCG.014	sIgA	sIgA	-0.186856598918232	0.306687828314441	79	36	0.544160644122323	0.810194736804347
Eisenbergiella	sIgA	sIgA	-0.131096037669131	0.226685754608525	79	21	0.564760481443916	0.823798367941898
Veillonella	sIgA	sIgA	-0.216309656489892	0.373519546447913	79	49	0.564226140437565	0.823798367941898
NK4A214	sIgA	sIgA	-0.144273612443755	0.248957521795936	79	40	0.563958374606123	0.823798367941898
Eubacterium.ventriosum	sIgA	sIgA	0.190507620468727	0.331678158567204	79	50	0.567410343833933	0.823798367941898
Anaerofustis	sIgA	sIgA	-0.118880772719816	0.208138098339873	79	32	0.569574371947132	0.823798367941898
Moryella	sIgA	sIgA	-0.0852033544538733	0.150018165861321	79	18	0.571740658347735	0.823798367941898
Actinomyces	Feces_age	Feces_age	-0.120847118517494	0.216865184508841	79	64	0.578997313314745	0.829792941007229
Slackia	sIgA	sIgA	-0.128746831120346	0.235310780533406	79	14	0.585888856088407	0.835203262934538
Peptoniphilus	Feces_age	Feces_age	-0.0569653269361884	0.10753452655014	79	15	0.597836465230643	0.847725781385251
Eubacterium.nodatum	Feces_age	Feces_age	-0.0423182472925506	0.0810253080879542	79	8	0.602991471111613	0.850535338199538
Clostridium.sensu.stricto.1	sIgA	sIgA	-0.181839348935035	0.355755557139868	79	70	0.61073781234632	0.8551725229588
Acinetobacter	sIgA	sIgA	0.0741187249235644	0.145794556747199	79	23	0.612660911970484	0.8551725229588
Enterorhabdus	sIgA	sIgA	0.130806006021622	0.26598783719789	79	34	0.624296254078057	0.859901411732574
UC5.1.2E3	sIgA	sIgA	-0.0668775982221836	0.135947356899051	79	11	0.624181500834481	0.859901411732574
Sphingopyxis	Feces_age	Feces_age	-0.0496516064414021	0.102530114910064	79	14	0.629591415221177	0.859901411732574
Anaerococcus	Feces_age	Feces_age	0.0397505981115201	0.0826885470508211	79	12	0.632091709370586	0.859901411732574
Parvimonas	Feces_age	Feces_age	-0.0585759258687699	0.121262796060318	79	8	0.630449273111858	0.859901411732574
Sutterella	sIgA	sIgA	-0.0611473885204208	0.128752292229003	79	10	0.636204030220525	0.861124646965155
Rhodococcus	sIgA	sIgA	-0.135383325027937	0.304566739101893	79	29	0.657936311992402	0.86490538817779
Prevotella	sIgA	sIgA	0.184057545207581	0.400264521195973	79	25	0.646944036456848	0.86490538817779
DTU089	sIgA	sIgA	-0.11008348474383	0.246970334001308	79	27	0.657055417167983	0.86490538817779
Agromyces	sIgA	sIgA	0.0494045236180024	0.10608521617563	79	12	0.642757818264194	0.86490538817779
Angelakisella	sIgA	sIgA	-0.0492941296629485	0.111042481663534	79	16	0.658360817866676	0.86490538817779
Paludicola	Feces_age	Feces_age	-0.0428371252520816	0.0963121641808057	79	13	0.657747364571616	0.86490538817779
Subdoligranulum	sIgA	sIgA	0.158491190719301	0.387910417546814	79	68	0.683999236674723	0.885407101455806
Dorea	sIgA	sIgA	0.127356844412034	0.325762804391403	79	69	0.696928300416889	0.885407101455806
Dialister	sIgA	sIgA	0.203605751054377	0.497702712963432	79	42	0.683623389901142	0.885407101455806
Clostridium.innocuum	sIgA	sIgA	0.0931777336863606	0.242628120452733	79	46	0.702024737224521	0.885407101455806
Faecalitalea	Feces_age	Feces_age	-0.101177705882771	0.262070359683867	79	15	0.700522927704939	0.885407101455806
Parasutterella	sIgA	sIgA	0.0970945856286058	0.247197784731826	79	21	0.695580785925527	0.885407101455806
Bilophila	sIgA	sIgA	0.0741505837701674	0.182410434876779	79	26	0.685514718451243	0.885407101455806
Rothia	sIgA	sIgA	0.0638087450645941	0.161341791791766	79	15	0.693590727012351	0.885407101455806
Catenibacillus	sIgA	sIgA	-0.0443780714130742	0.116244226338382	79	12	0.703700420186891	0.885407101455806
Parvimonas	sIgA	sIgA	-0.0434637671735109	0.121262796060318	79	8	0.721018065623485	0.902957203678009
Lachnospiraceae.ND3007	sIgA	sIgA	0.116345122097755	0.335461763859794	79	39	0.729684419694142	0.90795365467873
GCA.900066575	Feces_age	Feces_age	0.0423079337745801	0.122982116553312	79	15	0.731783542576887	0.90795365467873
Erysipelotrichaceae.UCG.003	sIgA	sIgA	-0.136625932453557	0.404162415642297	79	58	0.736259721612245	0.909297720700837
RF39	sIgA	sIgA	0.103630759854357	0.320305846393348	79	24	0.747177272847579	0.918548206986932
Solobacterium	sIgA	sIgA	-0.0600493156424791	0.197968077138005	79	15	0.762468494863194	0.933066468599708
Nubsella	sIgA	sIgA	-0.085083965357178	0.300340056511548	79	33	0.777723177814319	0.938873025469538
Parabacteroides	sIgA	sIgA	0.0822341569423881	0.288733174196249	79	48	0.776564203065883	0.938873025469538
Lachnospiraceae.UCG.004	sIgA	sIgA	0.0225878389193913	0.0785377278411046	79	11	0.774431945708025	0.938873025469538
Agathobacter	sIgA	sIgA	-0.0938970809179899	0.34591809360887	79	70	0.786786214010796	0.941333506048631
Intestinimonas	sIgA	sIgA	-0.0214971883244039	0.0789042308777078	79	8	0.786017510338575	0.941333506048631
Christensenella	sIgA	sIgA	0.040328923396566	0.154127096271594	79	18	0.79429128282367	0.946089172429971
Coprobacillus	sIgA	sIgA	0.0519889021333564	0.204565837451452	79	18	0.800071701884019	0.948757593384589
Enterococcus	sIgA	sIgA	-0.0657469934978566	0.264449391397429	79	24	0.804326550759227	0.949601390323669
Anaerostipes	sIgA	sIgA	-0.0490758232955646	0.205288205303997	79	77	0.811703961337098	0.954108165080448
Monoglobus	sIgA	sIgA	0.0547487426699754	0.235577222647525	79	74	0.816850080141656	0.955831303216401
CAG.56	sIgA	sIgA	-0.0574622021755819	0.252090632214514	79	26	0.820302984103627	0.955831303216401
Holdemanella	sIgA	sIgA	-0.0753394924753467	0.340772665987261	79	11	0.825619683471881	0.957861797274736
Ruminococcus.gauvreauii	sIgA	sIgA	-0.0593495693654576	0.274624104430731	79	43	0.829479429852836	0.958191755174827
Eubacterium.ruminantium	sIgA	sIgA	0.0409628619965563	0.200061220463915	79	12	0.838313542082429	0.964240469004683
Pseudomonas	sIgA	sIgA	-0.106723423812103	0.579564357052496	79	46	0.854390776434538	0.970203494914184
Faecalibacterium	sIgA	sIgA	-0.0441801624420119	0.246051313676354	79	77	0.85797846378605	0.970203494914184
Lachnoclostridium	Feces_age	Feces_age	0.0529592495009217	0.289405152362358	79	67	0.855290446813224	0.970203494914184
Anaerofustis	Feces_age	Feces_age	-0.0390944463928947	0.208138098339873	79	32	0.851511007335071	0.970203494914184
Butyricicoccus	sIgA	sIgA	-0.0514464556524269	0.296513991131513	79	68	0.862716335115461	0.97146209164262
Brevundimonas	sIgA	sIgA	-0.0903433755397678	0.555374853246285	79	39	0.871209242816754	0.972850321145376
Sarcina	Feces_age	Feces_age	-0.0438631931647041	0.264993671360443	79	13	0.868969952177593	0.972850321145376
Lachnoclostridium	sIgA	sIgA	-0.0434520601856055	0.289405152362358	79	67	0.881049819754846	0.97329257650203
Sarcina	sIgA	sIgA	-0.0392980326147904	0.264993671360443	79	13	0.882500358544751	0.97329257650203
Alistipes	sIgA	sIgA	-0.0557510827651917	0.356489962850875	79	64	0.876141148334211	0.97329257650203
Variovorax	sIgA	sIgA	-0.0548121767205068	0.493673540574118	79	35	0.911885889096146	0.9816165194334
Eubacterium.hallii	sIgA	sIgA	0.0410475364173386	0.370284465846828	79	70	0.91202430350342	0.9816165194334
Haemophilus	Feces_age	Feces_age	-0.0403582203675727	0.324335728225115	79	37	0.901300607375297	0.9816165194334
Adlercreutzia	sIgA	sIgA	0.0343896818176032	0.295304201522896	79	41	0.907599047886789	0.9816165194334
Faecalitalea	sIgA	sIgA	0.0344346556230144	0.262070359683867	79	15	0.895810294733055	0.9816165194334
Eubacterium.nodatum	sIgA	sIgA	-0.00978692843596188	0.0810253080879542	79	8	0.904177302183155	0.9816165194334
Eubacterium.fissicatena	Feces_age	Feces_age	0.0123672705737314	0.118868155205712	79	14	0.91741015948677	0.983463690969818
UBA1819	sIgA	sIgA	-0.0270218635890476	0.274723166798813	79	52	0.921905129384386	0.984344919023966
Stenotrophomonas	sIgA	sIgA	-0.0482327254269776	0.521894104315397	79	39	0.926608641026067	0.985440935694389
Romboutsia	sIgA	sIgA	0.0271620307965837	0.310782793574516	79	68	0.930584427758621	0.985757417546681
Akkermansia	sIgA	sIgA	-0.0283329644450741	0.450667191446764	79	63	0.950035930670091	0.986985418691974
Pedobacter	sIgA	sIgA	-0.0117527068255806	0.339907297975982	79	32	0.972508321869832	0.986985418691974
Intestinibacter	Feces_age	Feces_age	0.0129532761601357	0.254887703001902	79	68	0.959602649525991	0.986985418691974
Eggerthella	sIgA	sIgA	0.0185712836417419	0.268260510612868	79	67	0.944989532564298	0.986985418691974
Chryseobacterium	sIgA	sIgA	0.0100863437260197	0.272616686041071	79	29	0.970583401275079	0.986985418691974
Sphingobacterium	sIgA	sIgA	-0.0125386266612903	0.359112633522653	79	34	0.972238597965426	0.986985418691974
Prevotella	Feces_age	Feces_age	-0.0102586689551351	0.400264521195973	79	25	0.979619855865915	0.986985418691974
Senegalimassilia	sIgA	sIgA	0.0116653886893195	0.199733408491651	79	23	0.953579489716135	0.986985418691974
Barnesiella	sIgA	sIgA	0.0253231807766722	0.320197870241484	79	39	0.937172056595808	0.986985418691974
Lachnospira	Feces_age	Feces_age	-0.0126433413979975	0.280763395487909	79	37	0.964199904218178	0.986985418691974
Sphingopyxis	sIgA	sIgA	0.00397587391507854	0.102530114910064	79	14	0.969169369970046	0.986985418691974
Corynebacterium	Feces_age	Feces_age	-0.0040816465676432	0.158518595124346	79	33	0.979525275557681	0.986985418691974
Merdibacter	sIgA	sIgA	0.00845596332149108	0.138199596510051	79	12	0.95137122376654	0.986985418691974
Eubacterium.fissicatena	sIgA	sIgA	0.00132770489922221	0.118868155205712	79	14	0.991117435117266	0.994829485436058
Finegoldia	Feces_age	Feces_age	-4.60508468245602e-05	0.0916643073717235	79	8	0.999600470507583	0.999600470507583
