feature	metadata	value	coef	stderr	N	N.not.0	pval	qval
Catabacter	Lung_lymf_dens	Lung_lymf_dens	0.731147931637526	0.142135703886198	42	7	7.47444500899259e-06	0.000642802270773363
Angelakisella	Lung_lymf_dens	Lung_lymf_dens	0.511540854542987	0.105710174995962	42	10	1.97441326064668e-05	0.000848997702078072
UC5.1.2E3	Lung_lymf_dens	Lung_lymf_dens	0.394126282119095	0.0853046189253975	42	6	3.93716790444622e-05	0.00112865479927458
Raoultibacter	Lung_lymf_dens	Lung_lymf_dens	0.501642867176701	0.128312035928968	42	5	0.000348816207189352	0.00749954845457106
Lachnospiraceae.UCG.010	Lung_lymf_dens	Lung_lymf_dens	0.468432242821037	0.125728651931075	42	10	0.000601372472097969	0.0103436065200851
Family.XIII.AD3011	Lung_lymf_dens	Lung_lymf_dens	0.989475956996407	0.27644125260372	42	17	0.000921375436401155	0.0132063812550832
Eubacterium.siraeum	Lung_lymf_dens	Lung_lymf_dens	1.07986163336734	0.312048811893121	42	12	0.00129586687912358	0.0159206502292325
Candidatus.Soleaferrea	Lung_lymf_dens	Lung_lymf_dens	0.623016356642	0.193427474625672	42	14	0.00253968685734636	0.0273016337164733
Parasutterella	Lung_lymf_dens	Lung_lymf_dens	1.34873798802845	0.435022823507195	42	13	0.00353321958249299	0.0337618760104886
Butyricimonas	Lung_lymf_dens	Lung_lymf_dens	0.27777998757523	0.0931660779604276	42	5	0.00486366955519472	0.0418275581746746
Anaerofustis	Lung_lymf_dens	Lung_lymf_dens	0.578328143353202	0.198842629586311	42	18	0.00590216154505243	0.0461441720795008
Gordonibacter	Lung_lymf_dens	Lung_lymf_dens	-0.824465509279275	0.292168001040214	42	22	0.00739992862865491	0.0530328218386935
Parabacteroides	Lung_lymf_dens	Lung_lymf_dens	0.9569429795576	0.346507104819122	42	26	0.00864232040892229	0.057172273474409
Hungatella	Lung_lymf_dens	Lung_lymf_dens	-0.628981885504861	0.243811599920806	42	41	0.0136658746726193	0.0745795863757464
UCG.005	Lung_lymf_dens	Lung_lymf_dens	0.23281474006017	0.0890224472363912	42	6	0.0125145198198089	0.0745795863757464
Clostridia.vadinBB60	Lung_lymf_dens	Lung_lymf_dens	0.423329836981107	0.16448710435221	42	8	0.0138752718838598	0.0745795863757464
UBA1819	Lung_lymf_dens	Lung_lymf_dens	-0.689069230454973	0.283734945742552	42	39	0.0197474870951413	0.0973122338652945
Barnesiella	Lung_lymf_dens	Lung_lymf_dens	-0.436997594714939	0.180903985461743	42	16	0.0203676768555268	0.0973122338652945
Lachnoclostridium	Lung_lymf_dens	Lung_lymf_dens	0.240327796488912	0.102283996113011	42	42	0.0238164039786704	0.105661067161457
Acetanaerobacterium	Lung_lymf_dens	Lung_lymf_dens	0.224462755312679	0.0960760619195237	42	5	0.0245723412003389	0.105661067161457
Eggerthella	Lung_lymf_dens	Lung_lymf_dens	-0.459968886456955	0.209629865738599	42	15	0.0340905417682267	0.139608885336547
Erysipelatoclostridium	Lung_lymf_dens	Lung_lymf_dens	0.814631069715672	0.374877993797061	42	38	0.0357565696586932	0.139775681393074
Bacteroides	Lung_lymf_dens	Lung_lymf_dens	0.69002516111991	0.390528120138229	42	41	0.0848743205240674	0.269848200025317
Coprobacillus	Lung_lymf_dens	Lung_lymf_dens	0.710774602158893	0.406250919931184	42	29	0.0878575534966147	0.269848200025317
Clostridium.innocuum	Lung_lymf_dens	Lung_lymf_dens	0.425907856695471	0.234466682524015	42	41	0.076793441218711	0.269848200025317
Dielma	Lung_lymf_dens	Lung_lymf_dens	0.668126241185992	0.3623037284303	42	27	0.0725836459491771	0.269848200025317
Turicibacter	Lung_lymf_dens	Lung_lymf_dens	-0.219982033469783	0.125695252058513	42	6	0.087765437430457	0.269848200025317
Anaerofilum	Lung_lymf_dens	Lung_lymf_dens	0.142567819468373	0.0807678484624054	42	7	0.0851715406844437	0.269848200025317
Ruminococcus.gnavus	Lung_lymf_dens	Lung_lymf_dens	-1.14561299588396	0.667999421324947	42	16	0.0940855321450396	0.270995975016872
Gastranaerophilales	Lung_lymf_dens	Lung_lymf_dens	-0.361822071880296	0.211273527162531	42	6	0.0945334796570484	0.270995975016872
Escherichia.Shigella	Lung_lymf_dens	Lung_lymf_dens	-0.815734422965461	0.5009217619834	42	15	0.111278003323524	0.308706718897517
Ruminococcus.torques	Lung_lymf_dens	Lung_lymf_dens	0.790615775642772	0.496748697129691	42	21	0.119352048132292	0.320758629355535
Fusicatenibacter	Lung_lymf_dens	Lung_lymf_dens	-0.490373567312364	0.345231227281955	42	17	0.163233569755329	0.401088199970237
Sellimonas	Lung_lymf_dens	Lung_lymf_dens	0.464815587042698	0.323771768846314	42	32	0.158882800272167	0.401088199970237
Eubacterium	Lung_lymf_dens	Lung_lymf_dens	-0.16785211187138	0.115532234735865	42	12	0.154063139474466	0.401088199970237
Anaerostipes	Lung_lymf_dens	Lung_lymf_dens	0.523875810696048	0.384265281548552	42	35	0.1804070652482	0.408139908107636
Paraprevotella	Lung_lymf_dens	Lung_lymf_dens	0.155116464177201	0.116301423914335	42	6	0.1898325153989	0.408139908107636
Christensenellaceae.R.7	Lung_lymf_dens	Lung_lymf_dens	-0.58285936937519	0.429614521050547	42	12	0.182483437829039	0.408139908107636
Pseudoflavonifractor	Lung_lymf_dens	Lung_lymf_dens	-0.184217262173001	0.13796483654609	42	5	0.189344650110748	0.408139908107636
Intestinimonas	Lung_lymf_dens	Lung_lymf_dens	0.379621213190591	0.279659923178022	42	14	0.18225163529554	0.408139908107636
Lachnospiraceae.UCG.008	Lung_lymf_dens	Lung_lymf_dens	0.463381251005796	0.359718461289609	42	8	0.205086281342467	0.430180980376881
Faecalitalea	Lung_lymf_dens	Lung_lymf_dens	-0.181571476305831	0.142732036094069	42	7	0.210678484159601	0.431389277088706
Bilophila	Lung_lymf_dens	Lung_lymf_dens	0.189051189518412	0.150603287944489	42	12	0.216656705757554	0.433313411515107
UCG.009	Lung_lymf_dens	Lung_lymf_dens	-0.145391704555702	0.117923786587225	42	6	0.224799196247123	0.439380247210287
Clostridium.sensu.stricto.1	Lung_lymf_dens	Lung_lymf_dens	-0.515451133064236	0.424884784954976	42	6	0.232186223625198	0.443733671817046
Ruminococcus	Lung_lymf_dens	Lung_lymf_dens	-0.2933866974495	0.244963241673075	42	12	0.23809215204202	0.445128805991603
Oscillibacter	Lung_lymf_dens	Lung_lymf_dens	-0.303305738125431	0.276942183263382	42	37	0.279981940332703	0.506536221115181
Paludicola	Lung_lymf_dens	Lung_lymf_dens	0.22164184653029	0.203547725689768	42	8	0.282717890854985	0.506536221115181
Dorea	Lung_lymf_dens	Lung_lymf_dens	-0.372467247000921	0.352951520870131	42	9	0.297623895581299	0.522360306530444
Lachnospiraceae.NK4A136	Lung_lymf_dens	Lung_lymf_dens	-0.176351161695845	0.170011785579579	42	6	0.305831894352734	0.526030858286703
Subdoligranulum	Lung_lymf_dens	Lung_lymf_dens	0.562767548591957	0.564478295246402	42	28	0.324772529246353	0.538911321768684
Family.XIII.UCG.001	Lung_lymf_dens	Lung_lymf_dens	-0.176820197285752	0.177759240286102	42	15	0.325853357348507	0.538911321768684
Adlercreutzia	Lung_lymf_dens	Lung_lymf_dens	0.220584470106455	0.225932894385984	42	6	0.334770214221958	0.543212045718648
Clostridioides	Lung_lymf_dens	Lung_lymf_dens	-0.260104340738631	0.278039252702253	42	12	0.355146967349713	0.565604429482876
Bifidobacterium	Lung_lymf_dens	Lung_lymf_dens	-0.495805621419036	0.559015058507729	42	23	0.380419914499908	0.579602199012551
Collinsella	Lung_lymf_dens	Lung_lymf_dens	-0.29361707336087	0.32779969581236	42	9	0.375760708780098	0.579602199012551
Colidextribacter	Lung_lymf_dens	Lung_lymf_dens	-0.359201922292058	0.42014087767295	42	26	0.397667565433471	0.579602199012551
Robinsoniella	Lung_lymf_dens	Lung_lymf_dens	-0.176287279249237	0.208626249296707	42	11	0.403141975810176	0.579602199012551
Negativibacillus	Lung_lymf_dens	Lung_lymf_dens	0.0753661137300727	0.0894276712390824	42	7	0.404373627218059	0.579602199012551
UCG.003	Lung_lymf_dens	Lung_lymf_dens	-0.0557676967553941	0.0645092678895442	42	5	0.392472969553221	0.579602199012551
Coprococcus	Lung_lymf_dens	Lung_lymf_dens	-0.423496488959728	0.522346912088123	42	6	0.422302996443649	0.593751073159893
Lactonifactor	Lung_lymf_dens	Lung_lymf_dens	0.128230876230123	0.1601545247982	42	10	0.428053099254806	0.593751073159893
Odoribacter	Lung_lymf_dens	Lung_lymf_dens	0.221512170225143	0.286807368411553	42	23	0.444454002107503	0.606714987003892
Butyricicoccus	Lung_lymf_dens	Lung_lymf_dens	-0.309100831761387	0.464628209013852	42	32	0.509699066448202	0.664153329008263
Defluviitaleaceae.UCG.011	Lung_lymf_dens	Lung_lymf_dens	0.144479006102655	0.213706090846975	42	14	0.502890411585507	0.664153329008263
Eubacterium.xylanophilum	Lung_lymf_dens	Lung_lymf_dens	-0.136746783473253	0.203605872998832	42	7	0.505683126288185	0.664153329008263
Eubacterium.fissicatena	Lung_lymf_dens	Lung_lymf_dens	0.226276737969748	0.346642263090156	42	32	0.51764062872581	0.66443423985701
Incertae.Sedis	Lung_lymf_dens	Lung_lymf_dens	-0.22051435342138	0.358118441286927	42	37	0.541542289790439	0.684891719440849
Eubacterium.coprostanoligenes	Lung_lymf_dens	Lung_lymf_dens	-0.100089662742984	0.169922689281338	42	9	0.559152860335036	0.696915159258161
Lachnospira	Lung_lymf_dens	Lung_lymf_dens	-0.0526379463730444	0.0962294598296962	42	5	0.587414617346784	0.721680815597478
Akkermansia	Lung_lymf_dens	Lung_lymf_dens	0.272381719550995	0.601493917394215	42	39	0.653109299402668	0.739944703704887
Agathobacter	Lung_lymf_dens	Lung_lymf_dens	-0.152597704983861	0.320079981282225	42	12	0.636135389802371	0.739944703704887
Alistipes	Lung_lymf_dens	Lung_lymf_dens	-0.195906539112086	0.411976647293393	42	32	0.636997203347699	0.739944703704887
Flavonifractor	Lung_lymf_dens	Lung_lymf_dens	0.0895218571913649	0.195794509913505	42	41	0.649984060223914	0.739944703704887
GCA.900066575	Lung_lymf_dens	Lung_lymf_dens	-0.148920776442848	0.329668828852152	42	18	0.653904621878737	0.739944703704887
Frisingicoccus	Lung_lymf_dens	Lung_lymf_dens	0.0475150502824359	0.0972165043104071	42	6	0.627684297742672	0.739944703704887
Lachnospiraceae.ND3007	Lung_lymf_dens	Lung_lymf_dens	0.094555391683357	0.235098239429203	42	6	0.689681555048936	0.770293684859851
Anaerotruncus	Lung_lymf_dens	Lung_lymf_dens	0.0745893309204897	0.212949032379535	42	12	0.727975043304276	0.802639150309843
Faecalibacterium	Lung_lymf_dens	Lung_lymf_dens	-0.305493912397943	0.929188962824313	42	20	0.744041072508587	0.809968762477703
Holdemania	Lung_lymf_dens	Lung_lymf_dens	0.0712414813246752	0.262515020063307	42	25	0.787494025668081	0.846556077593187
Monoglobus	Lung_lymf_dens	Lung_lymf_dens	-0.0850891978318189	0.334672166350459	42	32	0.800607687440953	0.850027915060765
Blautia	Lung_lymf_dens	Lung_lymf_dens	-0.036735794806313	0.18251137622164	42	42	0.841500115959585	0.882548902103955
Enterococcus	Lung_lymf_dens	Lung_lymf_dens	-0.030499329723783	0.164827429184122	42	9	0.85413431500311	0.885006639641777
Eisenbergiella	Lung_lymf_dens	Lung_lymf_dens	0.0447910936247001	0.323106116779807	42	39	0.890440814609219	0.911641786385629
Christensenella	Lung_lymf_dens	Lung_lymf_dens	-0.0198318954944133	0.170917619757427	42	5	0.908207851425305	0.918892649677367
GCA.900066755	Lung_lymf_dens	Lung_lymf_dens	0.01254736909579	0.142724418085198	42	10	0.930384279653551	0.930384279653551
