feature	metadata	value	coef	stderr	N	N.not.0	pval	qval
Eubacterium	IgA_NALT_T16	IgA_NALT_T16	0.380937462909384	0.102099078268901	42	12	0.000592052790612155	0.0273962203446475
Clostridioides	IgA_NALT_T16	IgA_NALT_T16	0.898710459007299	0.24249777425118	42	12	0.000637121403363895	0.0273962203446475
Anaerostipes	IgA_NALT_T16	IgA_NALT_T16	-1.18295901586981	0.345740006939763	42	35	0.00144800485204897	0.0415094724254039
Incertae.Sedis	IgA_NALT_T16	IgA_NALT_T16	-0.998744860082629	0.323306665725998	42	37	0.00364246900088197	0.0783130835189624
Robinsoniella	IgA_NALT_T16	IgA_NALT_T16	0.561540542593408	0.190836703733419	42	11	0.00539492715126668	0.0927927470017868
Dielma	IgA_NALT_T16	IgA_NALT_T16	-0.844531982859846	0.352977268016936	42	27	0.0215161165233425	0.30839767016791
Coprobacillus	IgA_NALT_T16	IgA_NALT_T16	-0.798719048508248	0.402145521373219	42	29	0.0538996346018531	0.515040952862152
Escherichia.Shigella	IgA_NALT_T16	IgA_NALT_T16	1.01326132334887	0.491823865945885	42	15	0.0459246270453415	0.515040952862152
GCA.900066575	IgA_NALT_T16	IgA_NALT_T16	-0.640498977037272	0.314610867848702	42	18	0.0484264196631069	0.515040952862152
Enterococcus	IgA_NALT_T16	IgA_NALT_T16	0.29358584215554	0.158229328733432	42	9	0.0709122330886231	0.586747818555767
Angelakisella	IgA_NALT_T16	IgA_NALT_T16	-0.233718785698346	0.12787056140736	42	10	0.0750491395827143	0.586747818555767
Eubacterium.fissicatena	IgA_NALT_T16	IgA_NALT_T16	-0.553021578495319	0.337335242684313	42	32	0.108976189955847	0.645225757156696
Holdemania	IgA_NALT_T16	IgA_NALT_T16	-0.420427334074321	0.254208656214635	42	25	0.105982418461744	0.645225757156696
Gordonibacter	IgA_NALT_T16	IgA_NALT_T16	0.492908011024506	0.310293034965836	42	22	0.120042001331478	0.645225757156696
Family.XIII.UCG.001	IgA_NALT_T16	IgA_NALT_T16	-0.278362098106678	0.174478782720816	42	15	0.118496300266893	0.645225757156696
Clostridia.vadinBB60	IgA_NALT_T16	IgA_NALT_T16	-0.292759988022395	0.171445329494461	42	8	0.0954623819776401	0.645225757156696
Bacteroides	IgA_NALT_T16	IgA_NALT_T16	0.594995434986955	0.394417407706328	42	41	0.13927451260686	0.704565181422939
Erysipelatoclostridium	IgA_NALT_T16	IgA_NALT_T16	0.570097476025197	0.386003661151943	42	38	0.147526864046533	0.704850572666768
Lachnoclostridium	IgA_NALT_T16	IgA_NALT_T16	0.149224252802222	0.106532883019129	42	42	0.169003859258285	0.72126641734363
Subdoligranulum	IgA_NALT_T16	IgA_NALT_T16	-0.788804828757511	0.557672038209924	42	28	0.164964177839351	0.72126641734363
Hungatella	IgA_NALT_T16	IgA_NALT_T16	-0.228492947520803	0.260824319967686	42	41	0.386238130382737	0.72126641734363
Ruminococcus.gnavus	IgA_NALT_T16	IgA_NALT_T16	0.589989302300022	0.685807386135646	42	16	0.394759532356515	0.72126641734363
Ruminococcus.torques	IgA_NALT_T16	IgA_NALT_T16	-0.561470032670151	0.504484772592553	42	21	0.272370630290985	0.72126641734363
Eubacterium.siraeum	IgA_NALT_T16	IgA_NALT_T16	-0.409176848752686	0.34977327991929	42	12	0.248990978351503	0.72126641734363
Alistipes	IgA_NALT_T16	IgA_NALT_T16	0.34035900522731	0.409619501373889	42	32	0.410954121509743	0.72126641734363
Parabacteroides	IgA_NALT_T16	IgA_NALT_T16	-0.453134816416631	0.371251116223266	42	26	0.229398751673655	0.72126641734363
Clostridium.innocuum	IgA_NALT_T16	IgA_NALT_T16	0.271462135878139	0.240140105965876	42	41	0.265026954917487	0.72126641734363
Parasutterella	IgA_NALT_T16	IgA_NALT_T16	-0.440906808960792	0.479439506743289	42	13	0.363279152254936	0.72126641734363
Lachnospiraceae.ND3007	IgA_NALT_T16	IgA_NALT_T16	0.261748277110454	0.231909241344245	42	6	0.265762374153158	0.72126641734363
Clostridium.sensu.stricto.1	IgA_NALT_T16	IgA_NALT_T16	-0.479122104699855	0.425946449064158	42	6	0.267361015611306	0.72126641734363
Monoglobus	IgA_NALT_T16	IgA_NALT_T16	-0.400231076513285	0.328910079435438	42	32	0.23079611000603	0.72126641734363
Odoribacter	IgA_NALT_T16	IgA_NALT_T16	-0.259956082032961	0.28599952534831	42	23	0.368826690179564	0.72126641734363
Bilophila	IgA_NALT_T16	IgA_NALT_T16	-0.16436313452638	0.15132573524145	42	12	0.283913049425913	0.72126641734363
Defluviitaleaceae.UCG.011	IgA_NALT_T16	IgA_NALT_T16	0.185665206539597	0.212909273218009	42	14	0.388391526252781	0.72126641734363
Faecalitalea	IgA_NALT_T16	IgA_NALT_T16	-0.155614655607234	0.143496484719179	42	7	0.284658883122304	0.72126641734363
Lachnospira	IgA_NALT_T16	IgA_NALT_T16	-0.0977410881483302	0.0953443483708599	42	5	0.311458051894172	0.72126641734363
Lactonifactor	IgA_NALT_T16	IgA_NALT_T16	-0.147585807600993	0.159737320275116	42	10	0.361064010006682	0.72126641734363
Eggerthella	IgA_NALT_T16	IgA_NALT_T16	-0.229125539064476	0.218909803814276	42	15	0.301537231875097	0.72126641734363
Candidatus.Soleaferrea	IgA_NALT_T16	IgA_NALT_T16	-0.240234730619849	0.213717346771973	42	14	0.267681208164343	0.72126641734363
UCG.005	IgA_NALT_T16	IgA_NALT_T16	-0.080279337062186	0.0954931641150798	42	6	0.405523836498006	0.72126641734363
Paludicola	IgA_NALT_T16	IgA_NALT_T16	-0.222908112611998	0.203513153555501	42	8	0.279936247713183	0.72126641734363
Intestinimonas	IgA_NALT_T16	IgA_NALT_T16	-0.331129560486578	0.281196211965673	42	14	0.245925297473584	0.72126641734363
Butyricimonas	IgA_NALT_T16	IgA_NALT_T16	-0.107296856571509	0.101593039792142	42	5	0.297239838147762	0.72126641734363
Negativibacillus	IgA_NALT_T16	IgA_NALT_T16	0.104338791729117	0.0886969282119028	42	7	0.246407835188436	0.72126641734363
Adlercreutzia	IgA_NALT_T16	IgA_NALT_T16	-0.189906502196355	0.226628547379893	42	6	0.407030473115647	0.72126641734363
Anaerofilum	IgA_NALT_T16	IgA_NALT_T16	-0.0727939133108089	0.0830608877785911	42	7	0.386049854863913	0.72126641734363
Raoultibacter	IgA_NALT_T16	IgA_NALT_T16	-0.127093190622167	0.149503514144	42	5	0.400328455202883	0.72126641734363
UCG.003	IgA_NALT_T16	IgA_NALT_T16	-0.0649639542769803	0.0642937684367425	42	5	0.318365665245193	0.72126641734363
Acetanaerobacterium	IgA_NALT_T16	IgA_NALT_T16	-0.0905109158132809	0.101416922848182	42	5	0.377482260739795	0.72126641734363
Paraprevotella	IgA_NALT_T16	IgA_NALT_T16	-0.0931233133945748	0.117943844067985	42	6	0.434442447359071	0.747241009457602
Bifidobacterium	IgA_NALT_T16	IgA_NALT_T16	-0.379703169477658	0.561283398624423	42	23	0.502622257339644	0.845069014935976
UCG.009	IgA_NALT_T16	IgA_NALT_T16	0.0792512176902494	0.119488364493264	42	6	0.510971962519427	0.845069014935976
Blautia	IgA_NALT_T16	IgA_NALT_T16	0.0858075654156382	0.182099058094089	42	42	0.640048116649763	0.852799838444492
Fusicatenibacter	IgA_NALT_T16	IgA_NALT_T16	0.194982477540372	0.352485179851404	42	17	0.583229106570629	0.852799838444492
Eisenbergiella	IgA_NALT_T16	IgA_NALT_T16	0.187770132736484	0.321817150232134	42	39	0.562853723645025	0.852799838444492
Flavonifractor	IgA_NALT_T16	IgA_NALT_T16	0.0935135085561545	0.195747860213292	42	41	0.635446799972929	0.852799838444492
Eubacterium.coprostanoligenes	IgA_NALT_T16	IgA_NALT_T16	-0.0833955491257008	0.170147872178739	42	9	0.6267156248959	0.852799838444492
Oscillibacter	IgA_NALT_T16	IgA_NALT_T16	-0.136695474577991	0.280231495055305	42	37	0.628358291737554	0.852799838444492
UC5.1.2E3	IgA_NALT_T16	IgA_NALT_T16	-0.0489758692693713	0.105357962547524	42	6	0.644558017428976	0.852799838444492
Barnesiella	IgA_NALT_T16	IgA_NALT_T16	-0.0941352142663295	0.193077415656219	42	16	0.628529042008464	0.852799838444492
Anaerofustis	IgA_NALT_T16	IgA_NALT_T16	-0.124534300074241	0.217973066176267	42	18	0.570973229652266	0.852799838444492
Anaerotruncus	IgA_NALT_T16	IgA_NALT_T16	-0.106497550930026	0.212609586777518	42	12	0.619182201927812	0.852799838444492
Gastranaerophilales	IgA_NALT_T16	IgA_NALT_T16	-0.121901120999904	0.218031847420657	42	6	0.579212060346276	0.852799838444492
Lachnospiraceae.UCG.008	IgA_NALT_T16	IgA_NALT_T16	-0.232180615418599	0.365263918328587	42	8	0.528623655509078	0.852799838444492
GCA.900066755	IgA_NALT_T16	IgA_NALT_T16	-0.0753037799896863	0.142240742923822	42	10	0.599446656241627	0.852799838444492
Agathobacter	IgA_NALT_T16	IgA_NALT_T16	-0.13466761661035	0.32028106677214	42	12	0.676394696198247	0.871098342188761
Christensenella	IgA_NALT_T16	IgA_NALT_T16	0.0711914423408841	0.170575378671579	42	5	0.678646382867988	0.871098342188761
Coprococcus	IgA_NALT_T16	IgA_NALT_T16	-0.20462569631646	0.525626518149725	42	6	0.699120147091698	0.871367139853421
Turicibacter	IgA_NALT_T16	IgA_NALT_T16	-0.0514387207702486	0.130165088316448	42	6	0.694809225198478	0.871367139853421
Akkermansia	IgA_NALT_T16	IgA_NALT_T16	0.175228814961448	0.6023969615221	42	39	0.772641529083027	0.893876959713785
Faecalibacterium	IgA_NALT_T16	IgA_NALT_T16	0.232583006447907	0.929716580751961	42	20	0.803739801054761	0.893876959713785
Ruminococcus	IgA_NALT_T16	IgA_NALT_T16	-0.068487943149163	0.249081550236201	42	12	0.784760789317623	0.893876959713785
Collinsella	IgA_NALT_T16	IgA_NALT_T16	-0.0861434109116482	0.330790565218861	42	9	0.795878254982903	0.893876959713785
UBA1819	IgA_NALT_T16	IgA_NALT_T16	0.0827223751456059	0.303652523060127	42	39	0.786697072905234	0.893876959713785
Pseudoflavonifractor	IgA_NALT_T16	IgA_NALT_T16	-0.0356481921902935	0.140893315225	42	5	0.80155206977399	0.893876959713785
Family.XIII.AD3011	IgA_NALT_T16	IgA_NALT_T16	-0.0957955885588333	0.317280495789261	42	17	0.764271908022169	0.893876959713785
Frisingicoccus	IgA_NALT_T16	IgA_NALT_T16	0.0315285323555081	0.0973788452468329	42	6	0.747797592320379	0.893876959713785
Lachnospiraceae.UCG.010	IgA_NALT_T16	IgA_NALT_T16	-0.0351533088751278	0.145816731519885	42	10	0.810725614624131	0.893876959713785
Butyricicoccus	IgA_NALT_T16	IgA_NALT_T16	0.0931275390436322	0.466959459967459	42	32	0.842933729140371	0.894966675383604
Lachnospiraceae.NK4A136	IgA_NALT_T16	IgA_NALT_T16	0.0388417954989904	0.172173701286822	42	6	0.822663918079227	0.894966675383604
Eubacterium.xylanophilum	IgA_NALT_T16	IgA_NALT_T16	0.042788616082329	0.204638881808217	42	7	0.835436639553145	0.894966675383604
Sellimonas	IgA_NALT_T16	IgA_NALT_T16	-0.0614279817138656	0.331866180300706	42	32	0.854087023391685	0.895749805020548
Colidextribacter	IgA_NALT_T16	IgA_NALT_T16	-0.0721178534178244	0.423808899147616	42	26	0.865737386391665	0.897029099152809
Dorea	IgA_NALT_T16	IgA_NALT_T16	-0.0298736530897006	0.357799890243173	42	9	0.933876289842014	0.956111439600157
Christensenellaceae.R.7	IgA_NALT_T16	IgA_NALT_T16	-0.0112047543721485	0.439384369483244	42	12	0.979782125530867	0.991308974066525
Catabacter	IgA_NALT_T16	IgA_NALT_T16	0.00155824149446369	0.183212799947921	42	7	0.993256279070698	0.993256279070698
