feature	metadata	value	coef	stderr	N	N.not.0	pval	qval
Negativibacillus	IgA_Lung_T16	IgA_Lung_T16	0.299943903645223	0.0767473193497101	42	7	0.000350230364883374	0.0301198113799701
UBA1819	IgA_Lung_T16	IgA_Lung_T16	-0.86929708132759	0.27107931340183	42	39	0.00264069716410543	0.113549978056533
Frisingicoccus	IgA_Lung_T16	IgA_Lung_T16	0.219532173668581	0.0911187759384841	42	6	0.0206778799906733	0.592765893065969
Bacteroides	IgA_Lung_T16	IgA_Lung_T16	0.726992062136137	0.388847842006278	42	41	0.0688711779224695	0.707162445340551
Hungatella	IgA_Lung_T16	IgA_Lung_T16	-0.416315695733354	0.254954079395537	42	41	0.110337443092382	0.707162445340551
Ruminococcus.gnavus	IgA_Lung_T16	IgA_Lung_T16	-1.13312817068674	0.668531576680431	42	16	0.0978574148349282	0.707162445340551
Parasutterella	IgA_Lung_T16	IgA_Lung_T16	0.989294909615737	0.45853527729735	42	13	0.0370273506593548	0.707162445340551
Clostridium.sensu.stricto.1	IgA_Lung_T16	IgA_Lung_T16	-0.647124939882518	0.420357062573258	42	6	0.13156510610987	0.707162445340551
Collinsella	IgA_Lung_T16	IgA_Lung_T16	0.554785308556257	0.319238542087503	42	9	0.0899334871382976	0.707162445340551
Turicibacter	IgA_Lung_T16	IgA_Lung_T16	-0.199800239655051	0.126534957115159	42	6	0.122209789066528	0.707162445340551
Holdemania	IgA_Lung_T16	IgA_Lung_T16	-0.425899060909436	0.253980844205391	42	25	0.10136250433491	0.707162445340551
Faecalitalea	IgA_Lung_T16	IgA_Lung_T16	-0.230377742948931	0.140960248090018	42	7	0.110033478163375	0.707162445340551
Lachnospira	IgA_Lung_T16	IgA_Lung_T16	-0.18299053130992	0.0921533472552529	42	5	0.0539488500071814	0.707162445340551
Eggerthella	IgA_Lung_T16	IgA_Lung_T16	-0.428774590001248	0.211276533946688	42	15	0.0491026691218241	0.707162445340551
Lachnospiraceae.UCG.008	IgA_Lung_T16	IgA_Lung_T16	0.620785343300489	0.353738695827498	42	8	0.0869294111100317	0.707162445340551
Catabacter	IgA_Lung_T16	IgA_Lung_T16	0.278749193458229	0.177832682447099	42	7	0.124880400112499	0.707162445340551
UC5.1.2E3	IgA_Lung_T16	IgA_Lung_T16	0.142406918246055	0.103214693272442	42	6	0.175338614596588	0.739629704208142
Defluviitaleaceae.UCG.011	IgA_Lung_T16	IgA_Lung_T16	0.292880293877809	0.209875382505088	42	14	0.17056562392831	0.739629704208142
Family.XIII.AD3011	IgA_Lung_T16	IgA_Lung_T16	0.443453650506804	0.309806478909444	42	17	0.160086104367877	0.739629704208142
Family.XIII.UCG.001	IgA_Lung_T16	IgA_Lung_T16	-0.239705495196422	0.175907685877032	42	15	0.180607253353151	0.739629704208142
Intestinimonas	IgA_Lung_T16	IgA_Lung_T16	-0.38851870666673	0.279354272624914	42	14	0.1719831296383	0.739629704208142
Blautia	IgA_Lung_T16	IgA_Lung_T16	0.150224881161704	0.181052347520868	42	42	0.41161507867586	0.872397880030905
Faecalibacterium	IgA_Lung_T16	IgA_Lung_T16	0.854605094929094	0.920579461638352	42	20	0.358802737314834	0.872397880030905
Lachnoclostridium	IgA_Lung_T16	IgA_Lung_T16	-0.0793762541908679	0.108390208790936	42	42	0.46824316493764	0.872397880030905
Subdoligranulum	IgA_Lung_T16	IgA_Lung_T16	0.35358802498004	0.568707144638396	42	28	0.537640553972534	0.872397880030905
Fusicatenibacter	IgA_Lung_T16	IgA_Lung_T16	0.418655975026785	0.347583710123087	42	17	0.235484613838234	0.872397880030905
Eisenbergiella	IgA_Lung_T16	IgA_Lung_T16	-0.304857961251438	0.319568864783116	42	39	0.345830399558412	0.872397880030905
Ruminococcus.torques	IgA_Lung_T16	IgA_Lung_T16	-0.499597168525681	0.506108849406384	42	21	0.329510824097601	0.872397880030905
Eubacterium.siraeum	IgA_Lung_T16	IgA_Lung_T16	-0.242635400280821	0.353631434190517	42	12	0.496592286608164	0.872397880030905
Erysipelatoclostridium	IgA_Lung_T16	IgA_Lung_T16	0.252627104943946	0.394371136587293	42	38	0.525447209159726	0.872397880030905
Parabacteroides	IgA_Lung_T16	IgA_Lung_T16	0.254405530771484	0.375955603750052	42	26	0.502497077688986	0.872397880030905
Clostridium.innocuum	IgA_Lung_T16	IgA_Lung_T16	0.242226940979368	0.240920558484088	42	41	0.320737146566833	0.872397880030905
Lachnospiraceae.ND3007	IgA_Lung_T16	IgA_Lung_T16	0.232906814127747	0.232676944782765	42	6	0.322849857508242	0.872397880030905
Flavonifractor	IgA_Lung_T16	IgA_Lung_T16	-0.191060877923229	0.193967104706764	42	41	0.330536710763246	0.872397880030905
Incertae.Sedis	IgA_Lung_T16	IgA_Lung_T16	-0.226437564076904	0.35802602311951	42	37	0.530684501706741	0.872397880030905
Bilophila	IgA_Lung_T16	IgA_Lung_T16	0.136318257261816	0.152020697487469	42	12	0.375239784314748	0.872397880030905
Barnesiella	IgA_Lung_T16	IgA_Lung_T16	-0.231412669896554	0.190162111909529	42	16	0.230764984210553	0.872397880030905
GCA.900066575	IgA_Lung_T16	IgA_Lung_T16	-0.315253006032122	0.326728266626643	42	18	0.34040330115682	0.872397880030905
Lachnospiraceae.NK4A136	IgA_Lung_T16	IgA_Lung_T16	0.173610580370592	0.170082288029437	42	6	0.313509622104849	0.872397880030905
Eubacterium	IgA_Lung_T16	IgA_Lung_T16	0.0886727251791979	0.117709320976665	42	12	0.45566927377733	0.872397880030905
Gordonibacter	IgA_Lung_T16	IgA_Lung_T16	-0.271105794613638	0.317046158208526	42	22	0.397589392323608	0.872397880030905
Colidextribacter	IgA_Lung_T16	IgA_Lung_T16	0.490463520346067	0.416809484052964	42	26	0.246266779976742	0.872397880030905
Pseudoflavonifractor	IgA_Lung_T16	IgA_Lung_T16	0.0970506525073093	0.140168560620597	42	5	0.492695573233593	0.872397880030905
Eubacterium.xylanophilum	IgA_Lung_T16	IgA_Lung_T16	-0.219790088417784	0.201779958160384	42	7	0.282559975627044	0.872397880030905
Clostridioides	IgA_Lung_T16	IgA_Lung_T16	0.297548480645363	0.277098908851415	42	12	0.289348133553533	0.872397880030905
Robinsoniella	IgA_Lung_T16	IgA_Lung_T16	0.160865545239825	0.208937547906322	42	11	0.445869688411891	0.872397880030905
UCG.005	IgA_Lung_T16	IgA_Lung_T16	-0.0603441227607954	0.0958594197921828	42	6	0.532596850090813	0.872397880030905
Butyricimonas	IgA_Lung_T16	IgA_Lung_T16	0.0952347477521754	0.101893177840694	42	5	0.355575639251362	0.872397880030905
Anaerotruncus	IgA_Lung_T16	IgA_Lung_T16	-0.169788763548289	0.211579001776825	42	12	0.42701542903385	0.872397880030905
Adlercreutzia	IgA_Lung_T16	IgA_Lung_T16	-0.163158346205017	0.227148837391968	42	6	0.476754371192635	0.872397880030905
Gastranaerophilales	IgA_Lung_T16	IgA_Lung_T16	-0.14920008925134	0.217607138914088	42	6	0.496895144761176	0.872397880030905
Anaerofilum	IgA_Lung_T16	IgA_Lung_T16	-0.0683550482131718	0.0831551237660051	42	7	0.415939538874619	0.872397880030905
Raoultibacter	IgA_Lung_T16	IgA_Lung_T16	0.113733869283087	0.149772270108374	42	5	0.452078276426384	0.872397880030905
Bifidobacterium	IgA_Lung_T16	IgA_Lung_T16	0.301463484978852	0.562469030413922	42	23	0.594951069144618	0.913674856186378
Ruminococcus	IgA_Lung_T16	IgA_Lung_T16	0.134007750024865	0.248414837923022	42	12	0.592565781009037	0.913674856186378
Agathobacter	IgA_Lung_T16	IgA_Lung_T16	0.175359625971126	0.31978832209177	42	12	0.58649137074259	0.913674856186378
Coprococcus	IgA_Lung_T16	IgA_Lung_T16	-0.22465389931817	0.525422015250652	42	6	0.67125842502602	0.977606369232671
Eubacterium.coprostanoligenes	IgA_Lung_T16	IgA_Lung_T16	0.0702762700251634	0.170295918900266	42	9	0.682050955278608	0.977606369232671
Dielma	IgA_Lung_T16	IgA_Lung_T16	-0.165283269203524	0.376484852964318	42	27	0.663011623260815	0.977606369232671
UCG.009	IgA_Lung_T16	IgA_Lung_T16	0.0500747362132171	0.119882447242034	42	6	0.678401201183118	0.977606369232671
Akkermansia	IgA_Lung_T16	IgA_Lung_T16	-0.126993944089462	0.602699378749467	42	39	0.834184412824628	0.988955051365299
Dorea	IgA_Lung_T16	IgA_Lung_T16	0.0820361144377023	0.357595895159535	42	9	0.819719209284348	0.988955051365299
Coprobacillus	IgA_Lung_T16	IgA_Lung_T16	0.0859030311563432	0.421290090143051	42	29	0.839461845926359	0.988955051365299
Alistipes	IgA_Lung_T16	IgA_Lung_T16	-0.107894187197811	0.412787128343411	42	32	0.795140868306805	0.988955051365299
Odoribacter	IgA_Lung_T16	IgA_Lung_T16	-0.0946481225860908	0.2885501705707	42	23	0.744612894979912	0.988955051365299
Escherichia.Shigella	IgA_Lung_T16	IgA_Lung_T16	-0.170370538252628	0.516558346018348	42	15	0.743258125973319	0.988955051365299
Eubacterium.fissicatena	IgA_Lung_T16	IgA_Lung_T16	0.0867628071132097	0.3482135738257	42	32	0.80450780320851	0.988955051365299
Christensenellaceae.R.7	IgA_Lung_T16	IgA_Lung_T16	-0.0957992023902141	0.439126776261408	42	12	0.828414863191344	0.988955051365299
Angelakisella	IgA_Lung_T16	IgA_Lung_T16	-0.0313414094191337	0.133011033924753	42	10	0.81492195727111	0.988955051365299
Lachnospiraceae.UCG.010	IgA_Lung_T16	IgA_Lung_T16	0.0412614787210894	0.145776713945018	42	10	0.778601476393626	0.988955051365299
UCG.003	IgA_Lung_T16	IgA_Lung_T16	0.0183402114304774	0.0650445036863005	42	5	0.779424830896974	0.988955051365299
Christensenella	IgA_Lung_T16	IgA_Lung_T16	0.0443658652858558	0.170802391948862	42	5	0.796389198994191	0.988955051365299
Acetanaerobacterium	IgA_Lung_T16	IgA_Lung_T16	0.0336987424464086	0.102282978818406	42	5	0.743522722529424	0.988955051365299
Candidatus.Soleaferrea	IgA_Lung_T16	IgA_Lung_T16	0.0407751817271469	0.216970866869333	42	14	0.851882210872226	0.990025272094749
Anaerostipes	IgA_Lung_T16	IgA_Lung_T16	0.0585004723721359	0.39298269121897	42	35	0.882409940127245	0.992696049248048
Sellimonas	IgA_Lung_T16	IgA_Lung_T16	0.0467036416486351	0.331926145094411	42	32	0.888809253396508	0.992696049248048
Enterococcus	IgA_Lung_T16	IgA_Lung_T16	0.0241725272870632	0.164853658929369	42	9	0.88416043676861	0.992696049248048
Monoglobus	IgA_Lung_T16	IgA_Lung_T16	0.00256457930664474	0.334942232023263	42	32	0.993928893134913	0.993928893134913
Butyricicoccus	IgA_Lung_T16	IgA_Lung_T16	0.0419631660387801	0.467144445577285	42	32	0.928871319397158	0.993928893134913
Paraprevotella	IgA_Lung_T16	IgA_Lung_T16	-0.00540834852614744	0.118856290894207	42	6	0.963932594117795	0.993928893134913
Oscillibacter	IgA_Lung_T16	IgA_Lung_T16	0.0119453147686805	0.281057404948813	42	37	0.966310499617571	0.993928893134913
Anaerofustis	IgA_Lung_T16	IgA_Lung_T16	-0.00201782980933619	0.218860402048268	42	18	0.992689669061986	0.993928893134913
Lactonifactor	IgA_Lung_T16	IgA_Lung_T16	0.00517703475418633	0.161430730381748	42	10	0.974575959344812	0.993928893134913
Paludicola	IgA_Lung_T16	IgA_Lung_T16	-0.0157916501555984	0.206527407216197	42	8	0.939432137113218	0.993928893134913
GCA.900066755	IgA_Lung_T16	IgA_Lung_T16	0.0146079407056539	0.142719517345203	42	10	0.9189869493491	0.993928893134913
Clostridia.vadinBB60	IgA_Lung_T16	IgA_Lung_T16	0.00144900486391895	0.17758423009873	42	8	0.993530264729909	0.993928893134913
