2022-03-25 11:25:04 INFO::Writing function arguments to log file
2022-03-25 11:25:04 DEBUG::Function arguments
2022-03-25 11:25:04 DEBUG::Output folder: demo_output_siga_8weeksmicobiome_siga12weeks
2022-03-25 11:25:04 DEBUG::Min Abundance: 0.000000
2022-03-25 11:25:04 DEBUG::Min Prevalence: 0.100000
2022-03-25 11:25:04 DEBUG::Normalization: TSS
2022-03-25 11:25:04 DEBUG::Transform: LOG
2022-03-25 11:25:04 DEBUG::Analysis method: LM
2022-03-25 11:25:04 DEBUG::Max significance: 0.250000
2022-03-25 11:25:04 DEBUG::Random effects:
2022-03-25 11:25:04 DEBUG::Fixed effects: Feces_IgA_T12
2022-03-25 11:25:04 DEBUG::Correction method: BH
2022-03-25 11:25:04 DEBUG::Standardize: TRUE
2022-03-25 11:25:04 DEBUG::Cores: 1
2022-03-25 11:25:04 INFO::Verifying options selected are valid
2022-03-25 11:25:04 INFO::Determining format of input files
2022-03-25 11:25:04 INFO::Input format is data samples as rows and metadata samples as rows
2022-03-25 11:25:04 DEBUG::A total of 54 samples were found in both the data and metadata
2022-03-25 11:25:04 DEBUG::Reordering data/metadata to use same sample ordering
2022-03-25 11:25:04 INFO::Formula for fixed effects: expr ~  Feces_IgA_T12
2022-03-25 11:25:04 INFO::Filter data based on min abundance and min prevalence
2022-03-25 11:25:04 INFO::Total samples in data: 54
2022-03-25 11:25:04 INFO::Min samples required with min abundance for a feature not to be filtered: 5.400000
2022-03-25 11:25:04 INFO::Total filtered features: 180
2022-03-25 11:25:04 INFO::Filtered feature names from abundance and prevalence filtering: Streptococcus, Erysipelotrichaceae.UCG.003, Ruminococcus.gauvreauii, Stenotrophomonas, Romboutsia, Phascolarctobacterium, Dialister, Lachnospiraceae.UCG.001, Sarcina, Intestinibacter, Clostridia.UCG.014, Pseudomonas, Holdemanella, Prevotella, Nubsella, UCG.002, Marvinbryantia, Terrisporobacter, CAG.56, Tyzzerella, Eubacterium.eligens, Rhodococcus, Veillonella, NK4A214, Muribaculaceae, Lactobacillus, Morganella, Pedobacter, Senegalimassilia, Variovorax, Haemophilus, RF39, Flavobacterium, Sphingopyxis, Lachnospiraceae.UCG.004, Brevundimonas, Staphylococcus, Actinomyces, Aliterella, Howardella, Enhydrobacter, Cellulosilyticum, Lachnospiraceae.UCG.003, Enterorhabdus, Bacillus, Catenibacillus, Megasphaera, Eubacterium.ruminantium, Catenibacterium, Eubacterium.brachy, Chloroplast, Fusobacterium, Roseomonas, Moryella, Leuconostoc, Peptococcus, Weissella, Solobacterium, UCG.003, Megamonas, Achromobacter, Chryseobacterium, Rickettsiella, Mycoplasma, Slackia, Rothia, Peptostreptococcus, UCG.010, Pediococcus, Libanicoccus, DTU089, Lawsonella, Rubellimicrobium, Anaerococcus, Mitochondria, Varibaculum, Truepera, Mogibacterium, Fimbriiglobus, Fournierella, Merdibacter, Alcaligenes, Allisonella, Acetanaerobacterium, Nocardioides, Campylobacter, Massilia, Corynebacterium, CHKCI001, Hymenobacter, Burkholderia.Caballeronia.Paraburkholderia, Allorhizobium.Neorhizobium.Pararhizobium.Rhizobium, Geoalkalibacter, X0319.6G20, Candidatus.Alysiosphaera, Hydrotalea, Acidiphilium, Kocuria, Clostridium.methylpentosum, Peptoniphilus, Butyrivibrio, Microbacterium, Bosea, Moraxella, X67.14, Allobaculum, Coprobacter, Capnocytophaga, Succiniclasticum, Psychrobacter, Cupriavidus, Pajaroellobacter, Novosphingobium, Tepidimonas, Harryflintia, Pseudonocardia, Geobacillus, Dolosigranulum, Pseudoxanthomonas, Nakamurella, CAG.352, Turicella, Atopobium, Solirubrobacter, Alloprevotella, KD4.96, Parvimonas, Janthinobacterium, Mycobacterium, Shewanella, Isoptericola, CHKCI002, Sphingobacterium, Erysipelotrichaceae, Finegoldia, Blastocatella, Aquamicrobium, Porphyromonas, Craurococcus.Caldovatus, Devosia, Phreatobacter, Sutterella, X1174.901.12, Marmoricola, Olsenella, Abiotrophia, Aquabacterium, Brevibacterium, Caulobacter, Luteolibacter, F0332, Spirosoma, Ezakiella, Dyadobacter, AKIW781, S5.A14a, Fenollaria, Blastococcus, Lysinibacillus, Brochothrix, Macrococcus, Subgroup.10, Fimbriimonadaceae, Deinococcus, Thermus, Vicinamibacteraceae, env.OPS.17, Negativicoccus, Azospira, Dermacoccus, Flavisolibacter, JG30.KF.CM45, Azospirillum, Proteus, Halomonas, Cellulomonas, Sphingobium, Psychromonas, Cellvibrio, Prevotellaceae.NK3B31
2022-03-25 11:25:04 INFO::Total filtered features with variance filtering: 0
2022-03-25 11:25:04 INFO::Filtered feature names from variance filtering:
2022-03-25 11:25:04 INFO::Running selected normalization method: TSS
2022-03-25 11:25:04 INFO::Applying z-score to standardize continuous metadata
2022-03-25 11:25:04 INFO::Running selected transform method: LOG
2022-03-25 11:25:04 INFO::Running selected analysis method: LM
2022-03-25 11:25:04 INFO::Fitting model to feature number 1, Bacteroides
2022-03-25 11:25:04 INFO::Fitting model to feature number 2, Blautia
2022-03-25 11:25:04 INFO::Fitting model to feature number 3, Akkermansia
2022-03-25 11:25:04 INFO::Fitting model to feature number 4, Faecalibacterium
2022-03-25 11:25:04 INFO::Fitting model to feature number 5, Lachnoclostridium
2022-03-25 11:25:04 INFO::Fitting model to feature number 6, Subdoligranulum
2022-03-25 11:25:04 INFO::Fitting model to feature number 7, Hungatella
2022-03-25 11:25:04 INFO::Fitting model to feature number 8, Ruminococcus.gnavus
2022-03-25 11:25:04 INFO::Fitting model to feature number 9, Bifidobacterium
2022-03-25 11:25:04 INFO::Fitting model to feature number 10, Ruminococcus
2022-03-25 11:25:04 INFO::Fitting model to feature number 11, Anaerostipes
2022-03-25 11:25:04 INFO::Fitting model to feature number 12, Fusicatenibacter
2022-03-25 11:25:04 INFO::Fitting model to feature number 13, Eisenbergiella
2022-03-25 11:25:04 INFO::Fitting model to feature number 14, Agathobacter
2022-03-25 11:25:04 INFO::Fitting model to feature number 15, Ruminococcus.torques
2022-03-25 11:25:04 INFO::Fitting model to feature number 16, Dorea
2022-03-25 11:25:06 INFO::Fitting model to feature number 17, Eubacterium.siraeum
2022-03-25 11:25:07 INFO::Fitting model to feature number 18, Coprobacillus
2022-03-25 11:25:07 INFO::Fitting model to feature number 19, Alistipes
2022-03-25 11:25:07 INFO::Fitting model to feature number 20, Erysipelatoclostridium
2022-03-25 11:25:07 INFO::Fitting model to feature number 21, Sellimonas
2022-03-25 11:25:07 INFO::Fitting model to feature number 22, Parabacteroides
2022-03-25 11:25:07 INFO::Fitting model to feature number 23, Clostridium.innocuum
2022-03-25 11:25:07 INFO::Fitting model to feature number 24, Coprococcus
2022-03-25 11:25:07 INFO::Fitting model to feature number 25, Parasutterella
2022-03-25 11:25:07 INFO::Fitting model to feature number 26, Lachnospiraceae.ND3007
2022-03-25 11:25:07 INFO::Fitting model to feature number 27, Clostridium.sensu.stricto.1
2022-03-25 11:25:07 INFO::Fitting model to feature number 28, Eubacterium.hallii
2022-03-25 11:25:07 INFO::Fitting model to feature number 29, Monoglobus
2022-03-25 11:25:07 INFO::Fitting model to feature number 30, Flavonifractor
2022-03-25 11:25:07 INFO::Fitting model to feature number 31, Collinsella
2022-03-25 11:25:07 INFO::Fitting model to feature number 32, Butyricicoccus
2022-03-25 11:25:07 INFO::Fitting model to feature number 33, Odoribacter
2022-03-25 11:25:07 INFO::Fitting model to feature number 34, UBA1819
2022-03-25 11:25:07 INFO::Fitting model to feature number 35, Paraprevotella
2022-03-25 11:25:07 INFO::Fitting model to feature number 36, Eubacterium.coprostanoligenes
2022-03-25 11:25:07 INFO::Fitting model to feature number 37, Roseburia
2022-03-25 11:25:07 INFO::Fitting model to feature number 38, Incertae.Sedis
2022-03-25 11:25:07 INFO::Fitting model to feature number 39, Bilophila
2022-03-25 11:25:07 INFO::Fitting model to feature number 40, Oscillibacter
2022-03-25 11:25:07 INFO::Fitting model to feature number 41, Escherichia.Shigella
2022-03-25 11:25:07 INFO::Fitting model to feature number 42, UC5.1.2E3
2022-03-25 11:25:07 INFO::Fitting model to feature number 43, Eubacterium.fissicatena
2022-03-25 11:25:07 INFO::Fitting model to feature number 44, Dielma
2022-03-25 11:25:07 INFO::Fitting model to feature number 45, Epulopiscium
2022-03-25 11:25:07 INFO::Fitting model to feature number 46, Barnesiella
2022-03-25 11:25:07 INFO::Fitting model to feature number 47, Christensenellaceae.R.7
2022-03-25 11:25:07 INFO::Fitting model to feature number 48, Turicibacter
2022-03-25 11:25:07 INFO::Fitting model to feature number 49, GCA.900066575
2022-03-25 11:25:07 INFO::Fitting model to feature number 50, Holdemania
2022-03-25 11:25:07 INFO::Fitting model to feature number 51, Eubacterium.ventriosum
2022-03-25 11:25:07 INFO::Fitting model to feature number 52, Defluviitaleaceae.UCG.011
2022-03-25 11:25:07 INFO::Fitting model to feature number 53, Lachnospiraceae.NK4A136
2022-03-25 11:25:07 INFO::Fitting model to feature number 54, Lachnospiraceae.FCS020
2022-03-25 11:25:08 INFO::Fitting model to feature number 55, Eubacterium
2022-03-25 11:25:08 INFO::Fitting model to feature number 56, Faecalitalea
2022-03-25 11:25:08 INFO::Fitting model to feature number 57, Gordonibacter
2022-03-25 11:25:08 INFO::Fitting model to feature number 58, Colidextribacter
2022-03-25 11:25:08 INFO::Fitting model to feature number 59, Anaerofustis
2022-03-25 11:25:08 INFO::Fitting model to feature number 60, Pseudoflavonifractor
2022-03-25 11:25:08 INFO::Fitting model to feature number 61, Lachnospira
2022-03-25 11:25:08 INFO::Fitting model to feature number 62, Lactonifactor
2022-03-25 11:25:08 INFO::Fitting model to feature number 63, Eubacterium.xylanophilum
2022-03-25 11:25:09 INFO::Fitting model to feature number 64, Family.XIII.AD3011
2022-03-25 11:25:09 INFO::Fitting model to feature number 65, Eggerthella
2022-03-25 11:25:09 INFO::Fitting model to feature number 66, Enterococcus
2022-03-25 11:25:09 INFO::Fitting model to feature number 67, Frisingicoccus
2022-03-25 11:25:09 INFO::Fitting model to feature number 68, Family.XIII.UCG.001
2022-03-25 11:25:09 INFO::Fitting model to feature number 69, Candidatus.Soleaferrea
2022-03-25 11:25:09 INFO::Fitting model to feature number 70, Angelakisella
2022-03-25 11:25:09 INFO::Fitting model to feature number 71, Clostridioides
2022-03-25 11:25:09 INFO::Fitting model to feature number 72, Robinsoniella
2022-03-25 11:25:09 INFO::Fitting model to feature number 73, Lachnospiraceae
2022-03-25 11:25:09 INFO::Fitting model to feature number 74, UCG.009
2022-03-25 11:25:09 INFO::Fitting model to feature number 75, UCG.005
2022-03-25 11:25:09 INFO::Fitting model to feature number 76, Paludicola
2022-03-25 11:25:09 INFO::Fitting model to feature number 77, Intestinimonas
2022-03-25 11:25:09 INFO::Fitting model to feature number 78, Butyricimonas
2022-03-25 11:25:09 INFO::Fitting model to feature number 79, Negativibacillus
2022-03-25 11:25:09 INFO::Fitting model to feature number 80, Anaerotruncus
2022-03-25 11:25:09 INFO::Fitting model to feature number 81, Adlercreutzia
2022-03-25 11:25:09 INFO::Fitting model to feature number 82, Lachnospiraceae.UCG.010
2022-03-25 11:25:09 INFO::Fitting model to feature number 83, Gastranaerophilales
2022-03-25 11:25:09 INFO::Fitting model to feature number 84, Lachnospiraceae.UCG.008
2022-03-25 11:25:09 INFO::Fitting model to feature number 85, Eubacterium.nodatum
2022-03-25 11:25:09 INFO::Fitting model to feature number 86, GCA.900066755
2022-03-25 11:25:09 INFO::Fitting model to feature number 87, Phocea
2022-03-25 11:25:09 INFO::Fitting model to feature number 88, Catabacter
2022-03-25 11:25:09 INFO::Fitting model to feature number 89, Anaerofilum
2022-03-25 11:25:09 INFO::Fitting model to feature number 90, Raoultibacter
2022-03-25 11:25:09 INFO::Fitting model to feature number 91, Clostridia.vadinBB60
2022-03-25 11:25:09 INFO::Fitting model to feature number 92, Christensenella
2022-03-25 11:25:09 INFO::Counting total values for each feature
2022-03-25 11:25:09 INFO::Writing residuals to file demo_output_siga_8weeksmicobiome_siga12weeks/residuals.rds
2022-03-25 11:25:09 INFO::Writing fitted values to file demo_output_siga_8weeksmicobiome_siga12weeks/fitted.rds
2022-03-25 11:25:09 INFO::Writing all results to file (ordered by increasing q-values): demo_output_siga_8weeksmicobiome_siga12weeks/all_results.tsv
2022-03-25 11:25:09 INFO::Writing the significant results (those which are less than or equal to the threshold of 0.250000 ) to file (ordered by increasing q-values): demo_output_siga_8weeksmicobiome_siga12weeks/significant_results.tsv
2022-03-25 11:25:09 INFO::Writing heatmap of significant results to file: demo_output_siga_8weeksmicobiome_siga12weeks/heatmap.pdf
2022-03-25 11:25:09 INFO::Writing association plots (one for each significant association) to output folder: demo_output_siga_8weeksmicobiome_siga12weeks
2022-03-25 11:25:10 INFO::Plotting associations from most to least significant, grouped by metadata
2022-03-25 11:25:10 INFO::Plotting data for metadata number 1, Feces_IgA_T12
2022-03-25 11:25:10 INFO::Creating scatter plot for continuous data, Feces_IgA_T12 vs Fusicatenibacter
2022-03-25 11:25:11 INFO::Creating scatter plot for continuous data, Feces_IgA_T12 vs Erysipelatoclostridium
2022-03-25 11:25:11 INFO::Creating scatter plot for continuous data, Feces_IgA_T12 vs Parabacteroides
2022-03-25 11:25:11 INFO::Creating scatter plot for continuous data, Feces_IgA_T12 vs Paraprevotella
2022-03-25 11:25:11 INFO::Creating scatter plot for continuous data, Feces_IgA_T12 vs Bilophila
2022-03-25 11:25:12 INFO::Creating scatter plot for continuous data, Feces_IgA_T12 vs Family.XIII.UCG.001
2022-03-25 11:25:12 INFO::Creating scatter plot for continuous data, Feces_IgA_T12 vs Clostridioides
2022-03-25 11:25:12 INFO::Creating scatter plot for continuous data, Feces_IgA_T12 vs Robinsoniella
2022-03-25 11:25:13 INFO::Creating scatter plot for continuous data, Feces_IgA_T12 vs Lachnospiraceae.UCG.008
2022-03-25 11:25:13 INFO::Creating scatter plot for continuous data, Feces_IgA_T12 vs Adlercreutzia
2022-03-25 11:25:14 INFO::Creating scatter plot for continuous data, Feces_IgA_T12 vs Subdoligranulum
2022-03-25 11:25:14 INFO::Creating scatter plot for continuous data, Feces_IgA_T12 vs Butyricicoccus
2022-03-25 11:25:15 INFO::Creating scatter plot for continuous data, Feces_IgA_T12 vs Ruminococcus
2022-03-25 11:25:15 INFO::Creating scatter plot for continuous data, Feces_IgA_T12 vs Lachnospiraceae.ND3007
2022-03-25 11:25:15 INFO::Creating scatter plot for continuous data, Feces_IgA_T12 vs GCA.900066575
2022-03-25 11:25:15 INFO::Creating scatter plot for continuous data, Feces_IgA_T12 vs Gordonibacter
2022-03-25 11:25:16 INFO::Creating scatter plot for continuous data, Feces_IgA_T12 vs UCG.005
2022-03-25 11:25:16 INFO::Creating scatter plot for continuous data, Feces_IgA_T12 vs Escherichia.Shigella
2022-03-25 11:25:17 INFO::Creating scatter plot for continuous data, Feces_IgA_T12 vs Clostridium.sensu.stricto.1
2022-03-25 11:25:17 INFO::Creating scatter plot for continuous data, Feces_IgA_T12 vs Ruminococcus.gnavus
2022-03-25 11:25:17 INFO::Creating scatter plot for continuous data, Feces_IgA_T12 vs Pseudoflavonifractor
2022-03-25 11:25:17 INFO::Creating scatter plot for continuous data, Feces_IgA_T12 vs Frisingicoccus
2022-03-25 11:25:17 INFO::Creating scatter plot for continuous data, Feces_IgA_T12 vs Bacteroides
2022-03-25 11:25:17 INFO::Creating scatter plot for continuous data, Feces_IgA_T12 vs Akkermansia
2022-03-25 11:25:18 INFO::Creating scatter plot for continuous data, Feces_IgA_T12 vs Hungatella
2022-03-25 11:25:19 INFO::Creating scatter plot for continuous data, Feces_IgA_T12 vs Roseburia
2022-03-25 11:25:19 INFO::Creating scatter plot for continuous data, Feces_IgA_T12 vs Holdemania
2022-03-25 11:25:19 INFO::Creating scatter plot for continuous data, Feces_IgA_T12 vs Anaerotruncus
2022-03-25 11:25:19 INFO::Creating scatter plot for continuous data, Feces_IgA_T12 vs Clostridium.innocuum
2022-03-25 11:25:19 INFO::Creating scatter plot for continuous data, Feces_IgA_T12 vs Eubacterium.ventriosum
2022-03-25 11:25:20 INFO::Creating scatter plot for continuous data, Feces_IgA_T12 vs Eggerthella
2022-03-25 11:25:20 INFO::Creating scatter plot for continuous data, Feces_IgA_T12 vs Negativibacillus
2022-03-25 11:25:20 INFO::Creating scatter plot for continuous data, Feces_IgA_T12 vs Lachnospiraceae.UCG.010
2022-03-25 11:25:21 INFO::Creating scatter plot for continuous data, Feces_IgA_T12 vs Christensenella
