feature	metadata	value	coef	stderr	N	N.not.0	pval	qval
Clostridioides	IgA_NALT_T16	IgA_NALT_T16	0.775137176492785	0.225390989916324	42	11	0.00137758515400442	0.11847232324438
Anaerostipes	IgA_NALT_T16	IgA_NALT_T16	-0.732017550884596	0.234545245287572	42	36	0.00334056448862791	0.143644273011
Coprobacillus	IgA_NALT_T16	IgA_NALT_T16	-1.03389133737559	0.390905702589832	42	29	0.0116214467694315	0.149517815805367
Eubacterium.fissicatena	IgA_NALT_T16	IgA_NALT_T16	-0.827707688765839	0.315146101215686	42	33	0.0121700547748554	0.149517815805367
Dielma	IgA_NALT_T16	IgA_NALT_T16	-0.862973689103007	0.321068453548344	42	29	0.0104303376453982	0.149517815805367
Eubacterium	IgA_NALT_T16	IgA_NALT_T16	0.567013790199274	0.205093212489168	42	15	0.00857652396673092	0.149517815805367
Robinsoniella	IgA_NALT_T16	IgA_NALT_T16	0.406717186859233	0.152267139093422	42	9	0.0108804810388745	0.149517815805367
