feature	metadata	value	coef	stderr	N	N.not.0	pval	qval
Parabacteroides	class	class	1.09770027871415	0.243683510231972	42	26	5.65254511209424e-05	0.00429593428519162
Hungatella	class	class	-0.605488869317495	0.227231564277769	42	42	0.0110584384819823	0.198969614833415
Flavonifractor	class	class	-0.343802219407858	0.132190566538744	42	42	0.0129719512707959	0.198969614833415
Gordonibacter	class	class	-0.764101268730004	0.2942068643112	42	20	0.0130901062390404	0.198969614833415
Family.XIII.UCG.001	class	class	-0.473303645615788	0.160483636765983	42	18	0.00529984064208802	0.198969614833415
Parasutterella	class	class	1.10469608132355	0.463998679863669	42	14	0.0221256350185342	0.2310963717977
Pseudoflavonifractor	class	class	-0.398658519285239	0.168337025861131	42	8	0.0227949115754912	0.2310963717977
Robinsoniella	class	class	0.44668522417158	0.190842161378544	42	12	0.0243259338734421	0.2310963717977
Barnesiella	class	class	-0.952881548631935	0.418618911574262	42	14	0.0282578131199842	0.2386215330132
UBA1819	class	class	-0.456782226812884	0.205553256836393	42	39	0.0319889600768717	0.243116096584225
Blautia	class	class	0.358168867248238	0.204969167207667	42	42	0.0882371863169113	0.275346974122083
Anaerostipes	class	class	0.579644602573406	0.325556007493753	42	36	0.0825946642485835	0.275346974122083
Dorea	class	class	0.273847589802174	0.149338666625015	42	6	0.0741412942116239	0.275346974122083
Lachnospiraceae.ND3007	class	class	-0.196311106564603	0.0965953891274678	42	6	0.0487998000130823	0.275346974122083
Clostridium.sensu.stricto.1	class	class	-0.666795878396695	0.382671212100973	42	6	0.0891096433664353	0.275346974122083
Butyricicoccus	class	class	-0.604297363049661	0.338429317083648	42	23	0.0817485268872218	0.275346974122083
Paraprevotella	class	class	0.3607489884221	0.188497809662106	42	6	0.0628189854255142	0.275346974122083
Eubacterium.coprostanoligenes	class	class	-0.207423591222014	0.115555925108456	42	5	0.0802115682009093	0.275346974122083
Bilophila	class	class	0.29047912825769	0.15874407044532	42	12	0.0747309153622032	0.275346974122083
Escherichia.Shigella	class	class	-0.637532564897235	0.36660624488507	42	18	0.0897246359546074	0.275346974122083
Turicibacter	class	class	-0.203029860284393	0.110161380827493	42	6	0.0727450446692394	0.275346974122083
Lachnospiraceae.NK4A136	class	class	0.283695519201679	0.163583571270668	42	6	0.0905746625401589	0.275346974122083
Eubacterium.xylanophilum	class	class	-0.418181665547874	0.196842203217144	42	7	0.0398632281782593	0.275346974122083
Eggerthella	class	class	-0.273138811925696	0.147821092549339	42	6	0.072040445098154	0.275346974122083
Clostridioides	class	class	0.526730577033158	0.256031111360537	42	12	0.0462183999679448	0.275346974122083
Ruminococcus.gnavus	class	class	-0.874978485136472	0.529215647193739	42	9	0.106088200979271	0.310103972093255
Butyricimonas	class	class	0.20196340858181	0.132200423611967	42	5	0.134455296854931	0.378466761517584
Collinsella	class	class	0.389096885192557	0.27920629339994	42	9	0.171139122808485	0.464520476194459
Bacteroides	class	class	0.546576251909803	0.405785580421397	42	40	0.185575688619316	0.475940705440518
Roseburia	class	class	-0.242135778968609	0.182612441379292	42	5	0.192377195017856	0.475940705440518
Oscillibacter	class	class	-0.291398647428964	0.220652493735404	42	39	0.194133708798106	0.475940705440518
Eisenbergiella	class	class	-0.491447653248115	0.390853051600437	42	38	0.215910945025613	0.497249449149896
Eubacterium	class	class	0.188906089734331	0.148212620237711	42	15	0.209819255517944	0.497249449149896
Negativibacillus	class	class	-0.160490853774329	0.133784685636221	42	7	0.237344384987322	0.529149481438886
Adlercreutzia	class	class	0.187018680647519	0.158052440008821	42	6	0.243687261188961	0.529149481438886
Faecalibacterium	class	class	-0.513118502767097	0.45577711424249	42	18	0.26695546182985	0.56021132953585
Subdoligranulum	class	class	0.472776868379504	0.425120696588441	42	23	0.272734463063506	0.56021132953585
Eubacterium.fissicatena	class	class	0.340648813520156	0.335954101458717	42	28	0.316689400523781	0.620267946566837
UCG.003	class	class	-0.127406390318358	0.128244833180863	42	6	0.326456813982546	0.620267946566837
Clostridia.vadinBB60	class	class	-0.108486765979634	0.10765930371291	42	6	0.319662398751392	0.620267946566837
Alistipes	class	class	-0.299359146337208	0.331222226856086	42	32	0.371511850537487	0.641702287292024
UC5.1.2E3	class	class	-0.126798869090125	0.137639919351789	42	6	0.362450262799114	0.641702287292024
Angelakisella	class	class	0.176596301639511	0.192908262051899	42	11	0.365445749869076	0.641702287292024
Lachnospiraceae.UCG.010	class	class	0.107983344798776	0.114802612686096	42	8	0.352555801314995	0.641702287292024
Holdemania	class	class	-0.30954782068793	0.353049125594564	42	26	0.385839533659974	0.651640101292401
Akkermansia	class	class	-0.521363297106203	0.628007374106178	42	39	0.411360942041474	0.679639817285914
Catabacter	class	class	0.0879469730365927	0.110865294236382	42	7	0.432296576003653	0.699032761197397
Lachnoclostridium	class	class	0.0712621418922108	0.109137419887848	42	42	0.517519013983181	0.702347233262888
Bifidobacterium	class	class	0.315237636988704	0.455067958841818	42	20	0.492483684571709	0.702347233262888
Fusicatenibacter	class	class	-0.19850634887819	0.271423222175881	42	18	0.468826214190883	0.702347233262888
Eubacterium.siraeum	class	class	-0.121714836637082	0.174353337760265	42	10	0.4891576892153	0.702347233262888
Monoglobus	class	class	-0.193316678061908	0.268911197681446	42	35	0.476389594822568	0.702347233262888
GCA.900066575	class	class	0.177099614789502	0.270562450438839	42	15	0.516496792112324	0.702347233262888
Faecalitalea	class	class	-0.069417362047098	0.0982656435028299	42	9	0.484018318390819	0.702347233262888
Family.XIII.AD3011	class	class	0.175112679395741	0.253853708676786	42	14	0.494291988927725	0.702347233262888
GCA.900066755	class	class	0.0864558933975226	0.128935444004572	42	7	0.506369313440878	0.702347233262888
Clostridium.innocuum	class	class	-0.156190333322123	0.245483936653304	42	42	0.528234538314509	0.704312717752678
Sellimonas	class	class	0.190625691088278	0.322355588060316	42	32	0.557611785201457	0.718279587717131
Anaerofilum	class	class	-0.0786080927762009	0.131107303091352	42	9	0.552173736263125	0.718279587717131
Anaerofustis	class	class	-0.102697245766095	0.185524470669215	42	17	0.582967400550505	0.73842537403064
Lachnospira	class	class	0.126222725992899	0.239147731835896	42	7	0.600552403964997	0.748229224612127
Colidextribacter	class	class	0.183613017123644	0.36561192536432	42	22	0.618275187337746	0.757885713510786
Agathobacter	class	class	-0.250206718195644	0.54642999184548	42	14	0.649506777064383	0.771289297763955
Erysipelatoclostridium	class	class	-0.149653702724201	0.326205471847617	42	39	0.648881604086452	0.771289297763955
Lactonifactor	class	class	0.0777484057286173	0.178632775512253	42	11	0.665726633132953	0.778388063355452
Ruminococcus.torques	class	class	-0.149338896268355	0.437667484902851	42	19	0.734727359123584	0.846049686263521
Incertae.Sedis	class	class	-0.0637615963452812	0.216471162059278	42	39	0.769860891235459	0.873275040804401
Coprobacillus	class	class	-0.0521299657973255	0.283951905868415	42	30	0.855264706030463	0.928573109404503
Defluviitaleaceae.UCG.011	class	class	-0.0489503783563102	0.243018887564492	42	13	0.841386147021943	0.928573109404503
Lachnospiraceae	class	class	-0.021175647509353	0.114182124074676	42	6	0.85380938183153	0.928573109404503
Dielma	class	class	0.0501575059834731	0.381403818572714	42	28	0.896033006122224	0.959133922046324
UCG.009	class	class	0.0152227160656073	0.137954046004192	42	6	0.912686548142045	0.963391356372158
Coprococcus	class	class	0.00511504191884855	0.11345671292936	42	6	0.964264963572268	0.971828333796393
Odoribacter	class	class	-0.0176062385675171	0.294471251595646	42	23	0.95262114764825	0.971828333796393
Christensenellaceae.R.7	class	class	-0.0115100847397831	0.32389057039753	42	10	0.971828333796393	0.971828333796393
Frisingicoccus	class	class	-0.00462819642330067	0.068518710514732	42	5	0.946483189907613	0.971828333796393
