feature	metadata	value	coef	stderr	N	N.not.0	pval	qval
Blautia	cell_density_mm	cell_density_mm	0.444533244853812	0.293396400173889	12	12	0.160690336403595	0.754915842618625
Subdoligranulum	cell_density_mm	cell_density_mm	-0.94362715288261	1.02378142207457	12	12	0.378381615807332	0.754915842618625
Hungatella	cell_density_mm	cell_density_mm	0.509952743320708	0.256665213034545	12	12	0.0750141161413777	0.754915842618625
Bifidobacterium	cell_density_mm	cell_density_mm	0.617255454698523	0.444136356529175	12	6	0.194754423874983	0.754915842618625
Anaerostipes	cell_density_mm	cell_density_mm	0.505650812902054	0.511617968578628	12	12	0.346298054135039	0.754915842618625
Eisenbergiella	cell_density_mm	cell_density_mm	-0.492561790607089	0.326262789827799	12	12	0.162048797801635	0.754915842618625
Agathobacter	cell_density_mm	cell_density_mm	0.187354256219763	0.189434459108563	12	3	0.345980194629133	0.754915842618625
Ruminococcus.torques	cell_density_mm	cell_density_mm	-0.578219730742681	0.696557900343044	12	11	0.425849962502814	0.754915842618625
Dorea	cell_density_mm	cell_density_mm	-0.292061629137554	0.233907100258098	12	3	0.240243464517348	0.754915842618625
Alistipes	cell_density_mm	cell_density_mm	0.524233305688827	0.457245656809032	12	9	0.278280116741804	0.754915842618625
Erysipelatoclostridium	cell_density_mm	cell_density_mm	0.390925855225349	0.414048181879413	12	12	0.367342519433146	0.754915842618625
Parabacteroides	cell_density_mm	cell_density_mm	0.283834543044781	0.312137350491119	12	9	0.384570722399574	0.754915842618625
Monoglobus	cell_density_mm	cell_density_mm	-0.263142163774861	0.287758641861521	12	9	0.381998517861736	0.754915842618625
Flavonifractor	cell_density_mm	cell_density_mm	0.243211229612846	0.185209241556863	12	12	0.218458505426179	0.754915842618625
Odoribacter	cell_density_mm	cell_density_mm	0.338969185780319	0.325184057902858	12	6	0.321775020518319	0.754915842618625
UBA1819	cell_density_mm	cell_density_mm	-0.423015074708604	0.424923424821017	12	12	0.342966911834327	0.754915842618625
Eubacterium.coprostanoligenes	cell_density_mm	cell_density_mm	-0.277083776128672	0.190522519681573	12	3	0.176509549348768	0.754915842618625
Incertae.Sedis	cell_density_mm	cell_density_mm	-0.748068463251833	0.645985379624532	12	11	0.273762210868078	0.754915842618625
Oscillibacter	cell_density_mm	cell_density_mm	0.336877265207404	0.174563507682352	12	12	0.0824580825029815	0.754915842618625
Escherichia.Shigella	cell_density_mm	cell_density_mm	1.15787852323532	0.400145935906619	12	4	0.0160070261036567	0.754915842618625
UC5.1.2E3	cell_density_mm	cell_density_mm	0.392691538912857	0.297296311106209	12	6	0.215970463100154	0.754915842618625
Christensenellaceae.R.7	cell_density_mm	cell_density_mm	0.225564865885216	0.254912109890954	12	3	0.397002632369367	0.754915842618625
GCA.900066575	cell_density_mm	cell_density_mm	-0.724276626025918	0.42226924981586	12	6	0.11707338216538	0.754915842618625
Defluviitaleaceae.UCG.011	cell_density_mm	cell_density_mm	0.299936587513699	0.347338018687825	12	6	0.40808069349385	0.754915842618625
Gordonibacter	cell_density_mm	cell_density_mm	0.186762110100099	0.215837352415526	12	4	0.407158387055945	0.754915842618625
Colidextribacter	cell_density_mm	cell_density_mm	0.865223822138231	0.573512578629745	12	6	0.16231794604609	0.754915842618625
Anaerofustis	cell_density_mm	cell_density_mm	-0.404531561031927	0.31227335708032	12	12	0.224273279581773	0.754915842618625
Family.XIII.AD3011	cell_density_mm	cell_density_mm	-0.394679524233452	0.456598684277492	12	12	0.407629709039164	0.754915842618625
Eggerthella	cell_density_mm	cell_density_mm	-0.212973783857322	0.182210411253332	12	3	0.269578183850914	0.754915842618625
Family.XIII.UCG.001	cell_density_mm	cell_density_mm	0.256618608484491	0.205555982646029	12	3	0.240317162317396	0.754915842618625
Candidatus.Soleaferrea	cell_density_mm	cell_density_mm	0.185255531263856	0.219826845345515	12	12	0.419077155391758	0.754915842618625
Lachnospiraceae	cell_density_mm	cell_density_mm	0.239514728322258	0.179545932251462	12	3	0.21178647708249	0.754915842618625
UCG.005	cell_density_mm	cell_density_mm	-0.393541163562612	0.264977373093819	12	6	0.168320634623888	0.754915842618625
Paludicola	cell_density_mm	cell_density_mm	0.626945078815897	0.360449264831552	12	5	0.112603957257971	0.754915842618625
Intestinimonas	cell_density_mm	cell_density_mm	-0.60565658268607	0.456225010375985	12	10	0.213838086046577	0.754915842618625
Butyricimonas	cell_density_mm	cell_density_mm	0.31785667644935	0.256026335422171	12	3	0.242752405488115	0.754915842618625
Lachnospiraceae.UCG.010	cell_density_mm	cell_density_mm	-0.460871099832244	0.297626584018254	12	9	0.152545850812276	0.754915842618625
Lachnospiraceae.UCG.008	cell_density_mm	cell_density_mm	0.416202725323079	0.458578565468806	12	5	0.38544251123075	0.754915842618625
GCA.900066755	cell_density_mm	cell_density_mm	-0.306410379059845	0.233137279425486	12	6	0.218094896448275	0.754915842618625
Phocea	cell_density_mm	cell_density_mm	0.145547542415995	0.13036770198864	12	2	0.290341727863107	0.754915842618625
Anaerofilum	cell_density_mm	cell_density_mm	-0.228398159851409	0.201684479700691	12	6	0.283867061552579	0.754915842618625
Raoultibacter	cell_density_mm	cell_density_mm	0.467862982931285	0.476761112758022	12	5	0.349572278884526	0.754915842618625
Christensenella	cell_density_mm	cell_density_mm	0.238802011672196	0.136359186684863	12	2	0.110453433900854	0.754915842618625
Lawsonella	cell_density_mm	cell_density_mm	-0.172023693385468	0.16585490688447	12	2	0.324074913463876	0.754915842618625
Bilophila	cell_density_mm	cell_density_mm	0.269310155677105	0.333028800069793	12	6	0.437521352901476	0.758370345029226
Parasutterella	cell_density_mm	cell_density_mm	0.200320458240049	0.253842733783688	12	6	0.448329068473882	0.760210159586148
Clostridium.sensu.stricto.1	cell_density_mm	cell_density_mm	-0.153532060887924	0.204195160384608	12	2	0.469444927500572	0.762848007188429
Lactonifactor	cell_density_mm	cell_density_mm	0.183364339251483	0.238965023593325	12	3	0.460620162150341	0.762848007188429
Lachnoclostridium	cell_density_mm	cell_density_mm	-0.106446135123402	0.161028402244447	12	12	0.523523848998351	0.777271568564924
Eubacterium.siraeum	cell_density_mm	cell_density_mm	0.596869740872301	0.953192698367588	12	5	0.545224186029548	0.777271568564924
Sellimonas	cell_density_mm	cell_density_mm	-0.382331396165635	0.630946591444125	12	12	0.558041126149176	0.777271568564924
Clostridium.innocuum	cell_density_mm	cell_density_mm	0.143706184759852	0.223428709464186	12	12	0.53457350990758	0.777271568564924
Eubacterium.hallii	cell_density_mm	cell_density_mm	-0.0802208752026793	0.120797379213977	12	2	0.521646744571118	0.777271568564924
Butyricicoccus	cell_density_mm	cell_density_mm	-0.61490700951926	1.00954206994003	12	11	0.556045393374775	0.777271568564924
Dielma	cell_density_mm	cell_density_mm	0.127788291026483	0.200236272446607	12	12	0.537691221980166	0.777271568564924
Negativibacillus	cell_density_mm	cell_density_mm	0.118185787875035	0.167703286010198	12	3	0.497062179416204	0.777271568564924
Clostridia.vadinBB60	cell_density_mm	cell_density_mm	-0.252565076025817	0.455008237978011	12	7	0.591040472650255	0.808792225731928
Holdemania	cell_density_mm	cell_density_mm	-0.283104845488042	0.533688853864073	12	9	0.60736546910027	0.816801837755536
Ruminococcus	cell_density_mm	cell_density_mm	0.167259173497769	0.334290674961446	12	4	0.627662274086035	0.829790803028995
Bacteroides	cell_density_mm	cell_density_mm	-0.0158807060661459	0.0376234988692447	12	12	0.681886397855199	0.871920312011566
Eubacterium.fissicatena	cell_density_mm	cell_density_mm	-0.160761874453189	0.373963329991311	12	12	0.676394103627044	0.871920312011566
Adlercreutzia	cell_density_mm	cell_density_mm	0.147117763930424	0.373288160639529	12	3	0.701771006043336	0.882873201151294
Akkermansia	cell_density_mm	cell_density_mm	-0.052412878640795	0.143567222611811	12	12	0.722657975575115	0.887755819270704
Faecalibacterium	cell_density_mm	cell_density_mm	-0.627541136606518	1.77356890439445	12	8	0.730813082479759	0.887755819270704
Lachnospiraceae.ND3007	cell_density_mm	cell_density_mm	-0.144729696010675	0.42380916498675	12	3	0.73979651605892	0.887755819270704
Frisingicoccus	cell_density_mm	cell_density_mm	0.0522502267908964	0.189499192703809	12	3	0.788370910160605	0.917804940186973
Acetanaerobacterium	cell_density_mm	cell_density_mm	0.093234015247279	0.333027179981835	12	5	0.785214478298463	0.917804940186973
Eubacterium.nodatum	cell_density_mm	cell_density_mm	0.0486309844653719	0.210951655492934	12	3	0.822326603749802	0.943256986654185
Ruminococcus.gnavus	cell_density_mm	cell_density_mm	0.0723225261041588	0.581327236242371	12	4	0.903456480917062	0.965337061801793
Coprobacillus	cell_density_mm	cell_density_mm	-0.0696050413291489	0.436561372755417	12	12	0.876497073482438	0.965337061801793
Eubacterium.ventriosum	cell_density_mm	cell_density_mm	0.0357250819389215	0.284406110592031	12	3	0.902527829553499	0.965337061801793
Enterococcus	cell_density_mm	cell_density_mm	0.0306642670631156	0.224045010929478	12	3	0.893852618070982	0.965337061801793
Anaerotruncus	cell_density_mm	cell_density_mm	-0.0556797755077078	0.3167295947646	12	7	0.863963128782458	0.965337061801793
Barnesiella	cell_density_mm	cell_density_mm	-0.0206271330996124	0.212184883892524	12	3	0.924478031221016	0.974449816692422
Fusicatenibacter	cell_density_mm	cell_density_mm	-0.0211020485773752	0.279846022641523	12	3	0.941378948755276	0.976642797168917
Angelakisella	cell_density_mm	cell_density_mm	0.0179234537764323	0.28798819879212	12	9	0.951600674164586	0.976642797168917
Paraprevotella	cell_density_mm	cell_density_mm	-0.003489909632927	0.150394151698293	12	3	0.981943193425836	0.982130383312572
Catabacter	cell_density_mm	cell_density_mm	0.0122629769931914	0.53399756147169	12	7	0.982130383312572	0.982130383312572
