Loading required package: Rcpp
The filter removed all reads: /hpc/tmp/tmpa0pd5cqz/filt_f/16SRUN10.009_479_L001_R1_001.fastq.gz and /hpc/tmp/tmpa0pd5cqz/filt_r/16SRUN10.009_479_L001_R2_001.fastq.gz not written.
The filter removed all reads: /hpc/tmp/tmpa0pd5cqz/filt_f/16SRUN10.002_400_L001_R1_001.fastq.gz and /hpc/tmp/tmpa0pd5cqz/filt_r/16SRUN10.002_400_L001_R2_001.fastq.gz not written.
The filter removed all reads: /hpc/tmp/tmpa0pd5cqz/filt_f/16SRUN10.006_451_L001_R1_001.fastq.gz and /hpc/tmp/tmpa0pd5cqz/filt_r/16SRUN10.006_451_L001_R2_001.fastq.gz not written.
The filter removed all reads: /hpc/tmp/tmpa0pd5cqz/filt_f/16SRUN10.017_399_L001_R1_001.fastq.gz and /hpc/tmp/tmpa0pd5cqz/filt_r/16SRUN10.017_399_L001_R2_001.fastq.gz not written.
The filter removed all reads: /hpc/tmp/tmpa0pd5cqz/filt_f/16SRUN10.020_453_L001_R1_001.fastq.gz and /hpc/tmp/tmpa0pd5cqz/filt_r/16SRUN10.020_453_L001_R2_001.fastq.gz not written.
The filter removed all reads: /hpc/tmp/tmpa0pd5cqz/filt_f/16SRUN10.021_494_L001_R1_001.fastq.gz and /hpc/tmp/tmpa0pd5cqz/filt_r/16SRUN10.021_494_L001_R2_001.fastq.gz not written.
The filter removed all reads: /hpc/tmp/tmpa0pd5cqz/filt_f/16SRUN10.094_490_L001_R1_001.fastq.gz and /hpc/tmp/tmpa0pd5cqz/filt_r/16SRUN10.094_490_L001_R2_001.fastq.gz not written.
The filter removed all reads: /hpc/tmp/tmpa0pd5cqz/filt_f/16SRUN10.096_322_L001_R1_001.fastq.gz and /hpc/tmp/tmpa0pd5cqz/filt_r/16SRUN10.096_322_L001_R2_001.fastq.gz not written.
The filter removed all reads: /hpc/tmp/tmpa0pd5cqz/filt_f/16SRUN10.161_486_L001_R1_001.fastq.gz and /hpc/tmp/tmpa0pd5cqz/filt_r/16SRUN10.161_486_L001_R2_001.fastq.gz not written.
The filter removed all reads: /hpc/tmp/tmpa0pd5cqz/filt_f/16SRUN10.192_348_L001_R1_001.fastq.gz and /hpc/tmp/tmpa0pd5cqz/filt_r/16SRUN10.192_348_L001_R2_001.fastq.gz not written.
The filter removed all reads: /hpc/tmp/tmpa0pd5cqz/filt_f/16SRUN10.191_489_L001_R1_001.fastq.gz and /hpc/tmp/tmpa0pd5cqz/filt_r/16SRUN10.191_489_L001_R2_001.fastq.gz not written.
Some input samples had no reads pass the filter.
rm: cannot remove ‘R2.fastq’: No such file or directory
rm: cannot remove ‘R1.fastq’: No such file or directory
rm: cannot remove ‘R2_barcode_temp’: No such file or directory
rm: cannot remove ‘R1_barcode_temp’: No such file or directory
